{
  "request": {
    "method": "GET",
    "queryParameters": {
      "account": {
        "absent": true
      },
      "page": {
        "matches": "3"
      },
      "size": {
        "matches": "50"
      },
      "sort": {
        "matches": "startTime,desc"
      }
    },
    "urlPath": "/icf/ilfsta/history/0000584_8"
  },
  "response": {
    "headers": {
      "Content-Type": "application/json; charset=utf-8"
    },
    "jsonBody": {
      "content": [
        {
          "account": "BUSINESS",
          "chargingType": "AC",
          "clockSrc": "INVALID",
          "costs": 18.87,
          "duration": 8708,
          "endSoc": 0,
          "endTime": "2018-04-01T03:15:08Z",
          "energySumKwh": 79.4,
          "pcid": "",
          "selfEnergy": 14.71,
          "sessionId": 1,
          "startSoc": 0,
          "startTime": "2018-04-01T00:50:00Z",
          "vehicleBrand": "",
          "vehicleModel": ""
        },
        {
          "account": "PRIVATE",
          "chargingType": "AC",
          "clockSrc": "NTP",
          "costs": 28.15,
          "duration": 7855,
          "endSoc": 0,
          "endTime": "2018-04-02T03:18:55Z",
          "energySumKwh": 82.16,
          "pcid": "",
          "selfEnergy": 19.6,
          "sessionId": 2,
          "startSoc": 0,
          "startTime": "2018-04-02T01:08:00Z",
          "vehicleBrand": "",
          "vehicleModel": ""
        },
        {
          "account": "PRIVATE",
          "chargingType": "AC",
          "clockSrc": "INVALID",
          "costs": 40.02,
          "duration": 10581,
          "endSoc": 0,
          "endTime": "2018-04-03T04:23:21Z",
          "energySumKwh": 42.84,
          "pcid": "",
          "selfEnergy": 1.16,
          "sessionId": 3,
          "startSoc": 0,
          "startTime": "2018-04-03T01:27:00Z",
          "vehicleBrand": "",
          "vehicleModel": ""
        },
        {
          "account": "BUSINESS",
          "chargingType": "AC",
          "clockSrc": "NTP",
          "costs": 22.7,
          "duration": 5807,
          "endSoc": 0,
          "endTime": "2018-04-04T19:25:47Z",
          "energySumKwh": 25.08,
          "pcid": "",
          "selfEnergy": 16.76,
          "sessionId": 4,
          "startSoc": 0,
          "startTime": "2018-04-04T17:49:00Z",
          "vehicleBrand": "",
          "vehicleModel": ""
        },
        {
          "account": "BUSINESS",
          "chargingType": "AC",
          "clockSrc": "INVALID",
          "costs": 29.81,
          "duration": 5612,
          "endSoc": 0,
          "endTime": "2018-04-05T19:37:32Z",
          "energySumKwh": 63.81,
          "pcid": "",
          "selfEnergy": 0.94,
          "sessionId": 5,
          "startSoc": 0,
          "startTime": "2018-04-05T18:04:00Z",
          "vehicleBrand": "",
          "vehicleModel": ""
        },
        {
          "account": "BUSINESS",
          "chargingType": "AC",
          "clockSrc": "INVALID",
          "costs": 18.1,
          "duration": 8668,
          "endSoc": 0,
          "endTime": "2018-04-06T21:18:28Z",
          "energySumKwh": 71.46,
          "pcid": "",
          "selfEnergy": 10.48,
          "sessionId": 6,
          "startSoc": 0,
          "startTime": "2018-04-06T18:54:00Z",
          "vehicleBrand": "",
          "vehicleModel": ""
        },
        {
          "account": "PRIVATE",
          "chargingType": "AC",
          "clockSrc": "NTP",
          "costs": 35.07,
          "duration": 3098,
          "endSoc": 0,
          "endTime": "2018-04-07T02:46:38Z",
          "energySumKwh": 50.59,
          "pcid": "",
          "selfEnergy": 3.26,
          "sessionId": 7,
          "startSoc": 0,
          "startTime": "2018-04-07T01:55:00Z",
          "vehicleBrand": "",
          "vehicleModel": ""
        },
        {
          "account": "BUSINESS",
          "chargingType": "AC",
          "clockSrc": "NTP",
          "costs": 22.53,
          "duration": 9199,
          "endSoc": 0,
          "endTime": "2018-04-08T05:24:19Z",
          "energySumKwh": 29.4,
          "pcid": "",
          "selfEnergy": 4.91,
          "sessionId": 8,
          "startSoc": 0,
          "startTime": "2018-04-08T02:51:00Z",
          "vehicleBrand": "",
          "vehicleModel": ""
        },
        {
          "account": "PRIVATE",
          "chargingType": "AC",
          "clockSrc": "NTP",
          "costs": 36.24,
          "duration": 8093,
          "endSoc": 0,
          "endTime": "2018-04-09T12:29:53Z",
          "energySumKwh": 24,
          "pcid": "",
          "selfEnergy": 13.07,
          "sessionId": 9,
          "startSoc": 0,
          "startTime": "2018-04-09T10:15:00Z",
          "vehicleBrand": "",
          "vehicleModel": ""
        },
        {
          "account": "PRIVATE",
          "chargingType": "AC",
          "clockSrc": "INVALID",
          "costs": 41.7,
          "duration": 8039,
          "endSoc": 0,
          "endTime": "2018-04-10T13:02:59Z",
          "energySumKwh": 66.97,
          "pcid": "",
          "selfEnergy": 17.7,
          "sessionId": 10,
          "startSoc": 0,
          "startTime": "2018-04-10T10:49:00Z",
          "vehicleBrand": "",
          "vehicleModel": ""
        },
        {
          "account": "PRIVATE",
          "chargingType": "AC",
          "clockSrc": "INVALID",
          "costs": 24.35,
          "duration": 3533,
          "endSoc": 0,
          "endTime": "2018-04-11T03:56:53Z",
          "energySumKwh": 53.45,
          "pcid": "",
          "selfEnergy": 13.78,
          "sessionId": 11,
          "startSoc": 0,
          "startTime": "2018-04-11T02:58:00Z",
          "vehicleBrand": "",
          "vehicleModel": ""
        },
        {
          "account": "PRIVATE",
          "chargingType": "AC",
          "clockSrc": "INVALID",
          "costs": 16.59,
          "duration": 5586,
          "endSoc": 0,
          "endTime": "2018-04-12T07:46:06Z",
          "energySumKwh": 20.61,
          "pcid": "",
          "selfEnergy": 10.56,
          "sessionId": 12,
          "startSoc": 0,
          "startTime": "2018-04-12T06:13:00Z",
          "vehicleBrand": "",
          "vehicleModel": ""
        },
        {
          "account": "PRIVATE",
          "chargingType": "AC",
          "clockSrc": "INVALID",
          "costs": 28.12,
          "duration": 5028,
          "endSoc": 0,
          "endTime": "2018-04-14T01:03:48Z",
          "energySumKwh": 43.14,
          "pcid": "",
          "selfEnergy": 18.57,
          "sessionId": 13,
          "startSoc": 0,
          "startTime": "2018-04-13T23:40:00Z",
          "vehicleBrand": "",
          "vehicleModel": ""
        },
        {
          "account": "BUSINESS",
          "chargingType": "AC",
          "clockSrc": "NTP",
          "costs": 38.01,
          "duration": 7897,
          "endSoc": 0,
          "endTime": "2018-04-14T08:47:37Z",
          "energySumKwh": 88.16,
          "pcid": "",
          "selfEnergy": 17.42,
          "sessionId": 14,
          "startSoc": 0,
          "startTime": "2018-04-14T06:36:00Z",
          "vehicleBrand": "",
          "vehicleModel": ""
        },
        {
          "account": "BUSINESS",
          "chargingType": "AC",
          "clockSrc": "INVALID",
          "costs": 33.57,
          "duration": 5942,
          "endSoc": 0,
          "endTime": "2018-04-15T22:13:02Z",
          "energySumKwh": 52.29,
          "pcid": "",
          "selfEnergy": 16.89,
          "sessionId": 15,
          "startSoc": 0,
          "startTime": "2018-04-15T20:34:00Z",
          "vehicleBrand": "",
          "vehicleModel": ""
        },
        {
          "account": "PRIVATE",
          "chargingType": "AC",
          "clockSrc": "NTP",
          "costs": 29.65,
          "duration": 5214,
          "endSoc": 0,
          "endTime": "2018-04-16T22:35:54Z",
          "energySumKwh": 49.55,
          "pcid": "",
          "selfEnergy": 16.21,
          "sessionId": 16,
          "startSoc": 0,
          "startTime": "2018-04-16T21:09:00Z",
          "vehicleBrand": "",
          "vehicleModel": ""
        },
        {
          "account": "BUSINESS",
          "chargingType": "AC",
          "clockSrc": "NTP",
          "costs": 15.42,
          "duration": 846,
          "endSoc": 0,
          "endTime": "2018-04-17T21:54:06Z",
          "energySumKwh": 56.59,
          "pcid": "",
          "selfEnergy": 2.91,
          "sessionId": 17,
          "startSoc": 0,
          "startTime": "2018-04-17T21:40:00Z",
          "vehicleBrand": "",
          "vehicleModel": ""
        },
        {
          "account": "PRIVATE",
          "chargingType": "AC",
          "clockSrc": "INVALID",
          "costs": 16.72,
          "duration": 9324,
          "endSoc": 0,
          "endTime": "2018-04-18T18:55:24Z",
          "energySumKwh": 67.16,
          "pcid": "",
          "selfEnergy": 12.27,
          "sessionId": 18,
          "startSoc": 0,
          "startTime": "2018-04-18T16:20:00Z",
          "vehicleBrand": "",
          "vehicleModel": ""
        },
        {
          "account": "BUSINESS",
          "chargingType": "AC",
          "clockSrc": "NTP",
          "costs": 37.37,
          "duration": 4296,
          "endSoc": 0,
          "endTime": "2018-04-19T22:53:36Z",
          "energySumKwh": 55.12,
          "pcid": "",
          "selfEnergy": 7.54,
          "sessionId": 19,
          "startSoc": 0,
          "startTime": "2018-04-19T21:42:00Z",
          "vehicleBrand": "",
          "vehicleModel": ""
        },
        {
          "account": "PRIVATE",
          "chargingType": "AC",
          "clockSrc": "INVALID",
          "costs": 35.26,
          "duration": 6446,
          "endSoc": 0,
          "endTime": "2018-04-20T23:44:26Z",
          "energySumKwh": 84.31,
          "pcid": "",
          "selfEnergy": 12.83,
          "sessionId": 20,
          "startSoc": 0,
          "startTime": "2018-04-20T21:57:00Z",
          "vehicleBrand": "",
          "vehicleModel": ""
        },
        {
          "account": "BUSINESS",
          "chargingType": "AC",
          "clockSrc": "INVALID",
          "costs": 29.47,
          "duration": 1186,
          "endSoc": 0,
          "endTime": "2018-04-21T22:26:46Z",
          "energySumKwh": 49.96,
          "pcid": "",
          "selfEnergy": 11.35,
          "sessionId": 21,
          "startSoc": 0,
          "startTime": "2018-04-21T22:07:00Z",
          "vehicleBrand": "",
          "vehicleModel": ""
        },
        {
          "account": "PRIVATE",
          "chargingType": "AC",
          "clockSrc": "INVALID",
          "costs": 17,
          "duration": 7581,
          "endSoc": 0,
          "endTime": "2018-04-22T09:00:21Z",
          "energySumKwh": 71.21,
          "pcid": "",
          "selfEnergy": 10.12,
          "sessionId": 22,
          "startSoc": 0,
          "startTime": "2018-04-22T06:54:00Z",
          "vehicleBrand": "",
          "vehicleModel": ""
        },
        {
          "account": "PRIVATE",
          "chargingType": "AC",
          "clockSrc": "NTP",
          "costs": 15.34,
          "duration": 4496,
          "endSoc": 0,
          "endTime": "2018-04-23T10:49:56Z",
          "energySumKwh": 39.94,
          "pcid": "",
          "selfEnergy": 13.35,
          "sessionId": 23,
          "startSoc": 0,
          "startTime": "2018-04-23T09:35:00Z",
          "vehicleBrand": "",
          "vehicleModel": ""
        },
        {
          "account": "BUSINESS",
          "chargingType": "AC",
          "clockSrc": "INVALID",
          "costs": 21.39,
          "duration": 1164,
          "endSoc": 0,
          "endTime": "2018-04-24T09:58:24Z",
          "energySumKwh": 45.65,
          "pcid": "",
          "selfEnergy": 5.05,
          "sessionId": 24,
          "startSoc": 0,
          "startTime": "2018-04-24T09:39:00Z",
          "vehicleBrand": "",
          "vehicleModel": ""
        },
        {
          "account": "PRIVATE",
          "chargingType": "AC",
          "clockSrc": "NTP",
          "costs": 21.62,
          "duration": 5198,
          "endSoc": 0,
          "endTime": "2018-04-25T11:31:38Z",
          "energySumKwh": 76.49,
          "pcid": "",
          "selfEnergy": 11.64,
          "sessionId": 25,
          "startSoc": 0,
          "startTime": "2018-04-25T10:05:00Z",
          "vehicleBrand": "",
          "vehicleModel": ""
        },
        {
          "account": "BUSINESS",
          "chargingType": "AC",
          "clockSrc": "NTP",
          "costs": 43.46,
          "duration": 6094,
          "endSoc": 0,
          "endTime": "2018-04-26T13:47:34Z",
          "energySumKwh": 42.14,
          "pcid": "",
          "selfEnergy": 4,
          "sessionId": 26,
          "startSoc": 0,
          "startTime": "2018-04-26T12:06:00Z",
          "vehicleBrand": "",
          "vehicleModel": ""
        },
        {
          "account": "PRIVATE",
          "chargingType": "AC",
          "clockSrc": "NTP",
          "costs": 34.54,
          "duration": 2535,
          "endSoc": 0,
          "endTime": "2018-04-27T13:51:15Z",
          "energySumKwh": 62.68,
          "pcid": "",
          "selfEnergy": 15.62,
          "sessionId": 27,
          "startSoc": 0,
          "startTime": "2018-04-27T13:09:00Z",
          "vehicleBrand": "",
          "vehicleModel": ""
        },
        {
          "account": "PRIVATE",
          "chargingType": "AC",
          "clockSrc": "NTP",
          "costs": 38.6,
          "duration": 3312,
          "endSoc": 0,
          "endTime": "2018-04-28T14:24:12Z",
          "energySumKwh": 79.27,
          "pcid": "",
          "selfEnergy": 3.18,
          "sessionId": 28,
          "startSoc": 0,
          "startTime": "2018-04-28T13:29:00Z",
          "vehicleBrand": "",
          "vehicleModel": ""
        },
        {
          "account": "BUSINESS",
          "chargingType": "AC",
          "clockSrc": "NTP",
          "costs": 32.18,
          "duration": 4198,
          "endSoc": 0,
          "endTime": "2018-04-29T16:11:58Z",
          "energySumKwh": 53.04,
          "pcid": "",
          "selfEnergy": 10.43,
          "sessionId": 29,
          "startSoc": 0,
          "startTime": "2018-04-29T15:02:00Z",
          "vehicleBrand": "",
          "vehicleModel": ""
        },
        {
          "account": "BUSINESS",
          "chargingType": "AC",
          "clockSrc": "INVALID",
          "costs": 26.48,
          "duration": 4067,
          "endSoc": 0,
          "endTime": "2018-04-30T17:48:47Z",
          "energySumKwh": 70.08,
          "pcid": "",
          "selfEnergy": 14.64,
          "sessionId": 30,
          "startSoc": 0,
          "startTime": "2018-04-30T16:41:00Z",
          "vehicleBrand": "",
          "vehicleModel": ""
        },
        {
          "account": "BUSINESS",
          "chargingType": "AC",
          "clockSrc": "INVALID",
          "costs": 34.65,
          "duration": 9510,
          "endSoc": 0,
          "endTime": "2018-05-01T20:09:30Z",
          "energySumKwh": 82.56,
          "pcid": "",
          "selfEnergy": 6.33,
          "sessionId": 31,
          "startSoc": 0,
          "startTime": "2018-05-01T17:31:00Z",
          "vehicleBrand": "",
          "vehicleModel": ""
        },
        {
          "account": "BUSINESS",
          "chargingType": "AC",
          "clockSrc": "INVALID",
          "costs": 44.74,
          "duration": 1676,
          "endSoc": 0,
          "endTime": "2018-05-02T20:02:56Z",
          "energySumKwh": 25.38,
          "pcid": "",
          "selfEnergy": 11.03,
          "sessionId": 32,
          "startSoc": 0,
          "startTime": "2018-05-02T19:35:00Z",
          "vehicleBrand": "",
          "vehicleModel": ""
        },
        {
          "account": "PRIVATE",
          "chargingType": "AC",
          "clockSrc": "INVALID",
          "costs": 43.61,
          "duration": 2414,
          "endSoc": 0,
          "endTime": "2018-05-03T20:29:14Z",
          "energySumKwh": 71.79,
          "pcid": "",
          "selfEnergy": 4.97,
          "sessionId": 33,
          "startSoc": 0,
          "startTime": "2018-05-03T19:49:00Z",
          "vehicleBrand": "",
          "vehicleModel": ""
        },
        {
          "account": "PRIVATE",
          "chargingType": "AC",
          "clockSrc": "NTP",
          "costs": 19.38,
          "duration": 3154,
          "endSoc": 0,
          "endTime": "2018-05-04T20:46:34Z",
          "energySumKwh": 52.66,
          "pcid": "",
          "selfEnergy": 3.66,
          "sessionId": 34,
          "startSoc": 0,
          "startTime": "2018-05-04T19:54:00Z",
          "vehicleBrand": "",
          "vehicleModel": ""
        },
        {
          "account": "PRIVATE",
          "chargingType": "AC",
          "clockSrc": "NTP",
          "costs": 30.97,
          "duration": 5406,
          "endSoc": 0,
          "endTime": "2018-05-05T21:30:06Z",
          "energySumKwh": 77.01,
          "pcid": "",
          "selfEnergy": 11.83,
          "sessionId": 35,
          "startSoc": 0,
          "startTime": "2018-05-05T20:00:00Z",
          "vehicleBrand": "",
          "vehicleModel": ""
        },
        {
          "account": "BUSINESS",
          "chargingType": "AC",
          "clockSrc": "INVALID",
          "costs": 44.57,
          "duration": 1053,
          "endSoc": 0,
          "endTime": "2018-05-06T20:35:33Z",
          "energySumKwh": 69.15,
          "pcid": "",
          "selfEnergy": 5.42,
          "sessionId": 36,
          "startSoc": 0,
          "startTime": "2018-05-06T20:18:00Z",
          "vehicleBrand": "",
          "vehicleModel": ""
        },
        {
          "account": "BUSINESS",
          "chargingType": "AC",
          "clockSrc": "INVALID",
          "costs": 42.24,
          "duration": 10212,
          "endSoc": 0,
          "endTime": "2018-05-07T18:48:12Z",
          "energySumKwh": 86.01,
          "pcid": "",
          "selfEnergy": 6.65,
          "sessionId": 37,
          "startSoc": 0,
          "startTime": "2018-05-07T15:58:00Z",
          "vehicleBrand": "",
          "vehicleModel": ""
        },
        {
          "account": "BUSINESS",
          "chargingType": "AC",
          "clockSrc": "INVALID",
          "costs": 41.85,
          "duration": 5771,
          "endSoc": 0,
          "endTime": "2018-05-09T00:19:11Z",
          "energySumKwh": 43.79,
          "pcid": "",
          "selfEnergy": 6.21,
          "sessionId": 38,
          "startSoc": 0,
          "startTime": "2018-05-08T22:43:00Z",
          "vehicleBrand": "",
          "vehicleModel": ""
        },
        {
          "account": "PRIVATE",
          "chargingType": "AC",
          "clockSrc": "INVALID",
          "costs": 38.63,
          "duration": 9590,
          "endSoc": 0,
          "endTime": "2018-05-10T02:01:50Z",
          "energySumKwh": 88.26,
          "pcid": "",
          "selfEnergy": 19.61,
          "sessionId": 39,
          "startSoc": 0,
          "startTime": "2018-05-09T23:22:00Z",
          "vehicleBrand": "",
          "vehicleModel": ""
        },
        {
          "account": "BUSINESS",
          "chargingType": "AC",
          "clockSrc": "NTP",
          "costs": 23.42,
          "duration": 7729,
          "endSoc": 0,
          "endTime": "2018-05-10T19:46:49Z",
          "energySumKwh": 65.07,
          "pcid": "",
          "selfEnergy": 13.61,
          "sessionId": 40,
          "startSoc": 0,
          "startTime": "2018-05-10T17:38:00Z",
          "vehicleBrand": "",
          "vehicleModel": ""
        },
        {
          "account": "PRIVATE",
          "chargingType": "AC",
          "clockSrc": "INVALID",
          "costs": 31.64,
          "duration": 5221,
          "endSoc": 0,
          "endTime": "2018-05-11T04:32:01Z",
          "energySumKwh": 81.62,
          "pcid": "",
          "selfEnergy": 5.89,
          "sessionId": 41,
          "startSoc": 0,
          "startTime": "2018-05-11T03:05:00Z",
          "vehicleBrand": "",
          "vehicleModel": ""
        },
        {
          "account": "PRIVATE",
          "chargingType": "AC",
          "clockSrc": "INVALID",
          "costs": 26.85,
          "duration": 6466,
          "endSoc": 0,
          "endTime": "2018-05-12T06:47:46Z",
          "energySumKwh": 51.25,
          "pcid": "",
          "selfEnergy": 15.93,
          "sessionId": 42,
          "startSoc": 0,
          "startTime": "2018-05-12T05:00:00Z",
          "vehicleBrand": "",
          "vehicleModel": ""
        },
        {
          "account": "BUSINESS",
          "chargingType": "AC",
          "clockSrc": "NTP",
          "costs": 33.13,
          "duration": 7889,
          "endSoc": 0,
          "endTime": "2018-05-13T13:11:29Z",
          "energySumKwh": 81.66,
          "pcid": "",
          "selfEnergy": 14.26,
          "sessionId": 43,
          "startSoc": 0,
          "startTime": "2018-05-13T11:00:00Z",
          "vehicleBrand": "",
          "vehicleModel": ""
        },
        {
          "account": "BUSINESS",
          "chargingType": "AC",
          "clockSrc": "NTP",
          "costs": 43.53,
          "duration": 5519,
          "endSoc": 0,
          "endTime": "2018-05-14T13:21:59Z",
          "energySumKwh": 78.05,
          "pcid": "",
          "selfEnergy": 17.45,
          "sessionId": 44,
          "startSoc": 0,
          "startTime": "2018-05-14T11:50:00Z",
          "vehicleBrand": "",
          "vehicleModel": ""
        },
        {
          "account": "BUSINESS",
          "chargingType": "AC",
          "clockSrc": "NTP",
          "costs": 15.09,
          "duration": 5280,
          "endSoc": 0,
          "endTime": "2018-05-15T13:48:00Z",
          "energySumKwh": 77.54,
          "pcid": "",
          "selfEnergy": 16.42,
          "sessionId": 45,
          "startSoc": 0,
          "startTime": "2018-05-15T12:20:00Z",
          "vehicleBrand": "",
          "vehicleModel": ""
        },
        {
          "account": "PRIVATE",
          "chargingType": "AC",
          "clockSrc": "NTP",
          "costs": 32.49,
          "duration": 5266,
          "endSoc": 0,
          "endTime": "2018-05-16T15:27:46Z",
          "energySumKwh": 21.25,
          "pcid": "",
          "selfEnergy": 15.4,
          "sessionId": 46,
          "startSoc": 0,
          "startTime": "2018-05-16T14:00:00Z",
          "vehicleBrand": "",
          "vehicleModel": ""
        },
        {
          "account": "PRIVATE",
          "chargingType": "AC",
          "clockSrc": "INVALID",
          "costs": 29.79,
          "duration": 8318,
          "endSoc": 0,
          "endTime": "2018-05-17T20:48:38Z",
          "energySumKwh": 34.73,
          "pcid": "",
          "selfEnergy": 0.91,
          "sessionId": 47,
          "startSoc": 0,
          "startTime": "2018-05-17T18:30:00Z",
          "vehicleBrand": "",
          "vehicleModel": ""
        },
        {
          "account": "BUSINESS",
          "chargingType": "AC",
          "clockSrc": "NTP",
          "costs": 32.3,
          "duration": 4205,
          "endSoc": 0,
          "endTime": "2018-05-18T21:10:05Z",
          "energySumKwh": 26.88,
          "pcid": "",
          "selfEnergy": 6.12,
          "sessionId": 48,
          "startSoc": 0,
          "startTime": "2018-05-18T20:00:00Z",
          "vehicleBrand": "",
          "vehicleModel": ""
        },
        {
          "account": "PRIVATE",
          "chargingType": "AC",
          "clockSrc": "NTP",
          "costs": 23.75,
          "duration": 11504,
          "endSoc": 0,
          "endTime": "2018-05-20T01:11:44Z",
          "energySumKwh": 21.8,
          "pcid": "",
          "selfEnergy": 3.22,
          "sessionId": 49,
          "startSoc": 0,
          "startTime": "2018-05-19T22:00:00Z",
          "vehicleBrand": "",
          "vehicleModel": ""
        },
        {
          "account": "BUSINESS",
          "chargingType": "AC",
          "clockSrc": "NTP",
          "costs": 43.1,
          "duration": 1873,
          "endSoc": 0,
          "endTime": "2018-05-20T23:51:13Z",
          "energySumKwh": 79.14,
          "pcid": "",
          "selfEnergy": 12.01,
          "sessionId": 50,
          "startSoc": 0,
          "startTime": "2018-05-20T23:20:00Z",
          "vehicleBrand": "",
          "vehicleModel": ""
        }
      ],
      "first": false,
      "last": true,
      "number": 3,
      "numberOfElements": 50,
      "size": 50,
      "sort": [
        {
          "ascending": false,
          "descending": true,
          "direction": "DESC",
          "ignoreCase": false,
          "nullHandling": "NATIVE",
          "property": "startTime"
        }
      ],
      "totalElements": 200,
      "totalPages": 4
    },
    "status": 200
  }
}