{
  "request": {
    "method": "GET",
    "queryParameters": {
      "account": {
        "absent": true
      },
      "page": {
        "matches": "1"
      },
      "size": {
        "matches": "50"
      },
      "sort": {
        "matches": "startTime,desc"
      }
    },
    "urlPath": "/icf/ilfsta/history/0000584_8"
  },
  "response": {
    "headers": {
      "Content-Type": "application/json; charset=utf-8"
    },
    "jsonBody": {
      "content": [
        {
          "account": "PRIVATE",
          "chargingType": "AC",
          "clockSrc": "NTP",
          "costs": 33.83,
          "duration": 8708,
          "endSoc": 0,
          "endTime": "2018-07-11T03:15:08Z",
          "energySumKwh": 26.12,
          "pcid": "",
          "selfEnergy": 19.41,
          "sessionId": 101,
          "startSoc": 0,
          "startTime": "2018-07-11T00:50:00Z",
          "vehicleBrand": "",
          "vehicleModel": ""
        },
        {
          "account": "PRIVATE",
          "chargingType": "AC",
          "clockSrc": "NTP",
          "costs": 40.26,
          "duration": 7855,
          "endSoc": 0,
          "endTime": "2018-07-12T03:18:55Z",
          "energySumKwh": 35.17,
          "pcid": "",
          "selfEnergy": 9.87,
          "sessionId": 102,
          "startSoc": 0,
          "startTime": "2018-07-12T01:08:00Z",
          "vehicleBrand": "",
          "vehicleModel": ""
        },
        {
          "account": "PRIVATE",
          "chargingType": "AC",
          "clockSrc": "INVALID",
          "costs": 18.13,
          "duration": 10581,
          "endSoc": 0,
          "endTime": "2018-07-13T04:23:21Z",
          "energySumKwh": 71.68,
          "pcid": "",
          "selfEnergy": 7.22,
          "sessionId": 103,
          "startSoc": 0,
          "startTime": "2018-07-13T01:27:00Z",
          "vehicleBrand": "",
          "vehicleModel": ""
        },
        {
          "account": "PRIVATE",
          "chargingType": "AC",
          "clockSrc": "NTP",
          "costs": 40.95,
          "duration": 5807,
          "endSoc": 0,
          "endTime": "2018-07-14T19:25:47Z",
          "energySumKwh": 32.12,
          "pcid": "",
          "selfEnergy": 19.1,
          "sessionId": 104,
          "startSoc": 0,
          "startTime": "2018-07-14T17:49:00Z",
          "vehicleBrand": "",
          "vehicleModel": ""
        },
        {
          "account": "PRIVATE",
          "chargingType": "AC",
          "clockSrc": "NTP",
          "costs": 19.01,
          "duration": 5612,
          "endSoc": 0,
          "endTime": "2018-07-15T19:37:32Z",
          "energySumKwh": 45.13,
          "pcid": "",
          "selfEnergy": 5.92,
          "sessionId": 105,
          "startSoc": 0,
          "startTime": "2018-07-15T18:04:00Z",
          "vehicleBrand": "",
          "vehicleModel": ""
        },
        {
          "account": "BUSINESS",
          "chargingType": "AC",
          "clockSrc": "NTP",
          "costs": 35.01,
          "duration": 8668,
          "endSoc": 0,
          "endTime": "2018-07-16T21:18:28Z",
          "energySumKwh": 21.08,
          "pcid": "",
          "selfEnergy": 17.53,
          "sessionId": 106,
          "startSoc": 0,
          "startTime": "2018-07-16T18:54:00Z",
          "vehicleBrand": "",
          "vehicleModel": ""
        },
        {
          "account": "BUSINESS",
          "chargingType": "AC",
          "clockSrc": "NTP",
          "costs": 19.14,
          "duration": 3098,
          "endSoc": 0,
          "endTime": "2018-07-17T02:46:38Z",
          "energySumKwh": 55.45,
          "pcid": "",
          "selfEnergy": 4.27,
          "sessionId": 107,
          "startSoc": 0,
          "startTime": "2018-07-17T01:55:00Z",
          "vehicleBrand": "",
          "vehicleModel": ""
        },
        {
          "account": "BUSINESS",
          "chargingType": "AC",
          "clockSrc": "INVALID",
          "costs": 22.31,
          "duration": 9199,
          "endSoc": 0,
          "endTime": "2018-07-18T05:24:19Z",
          "energySumKwh": 83.79,
          "pcid": "",
          "selfEnergy": 9.82,
          "sessionId": 108,
          "startSoc": 0,
          "startTime": "2018-07-18T02:51:00Z",
          "vehicleBrand": "",
          "vehicleModel": ""
        },
        {
          "account": "PRIVATE",
          "chargingType": "AC",
          "clockSrc": "NTP",
          "costs": 43.01,
          "duration": 8093,
          "endSoc": 0,
          "endTime": "2018-07-19T12:29:53Z",
          "energySumKwh": 81.85,
          "pcid": "",
          "selfEnergy": 1.08,
          "sessionId": 109,
          "startSoc": 0,
          "startTime": "2018-07-19T10:15:00Z",
          "vehicleBrand": "",
          "vehicleModel": ""
        },
        {
          "account": "BUSINESS",
          "chargingType": "AC",
          "clockSrc": "INVALID",
          "costs": 41.01,
          "duration": 8039,
          "endSoc": 0,
          "endTime": "2018-07-20T13:02:59Z",
          "energySumKwh": 57.8,
          "pcid": "",
          "selfEnergy": 6.49,
          "sessionId": 110,
          "startSoc": 0,
          "startTime": "2018-07-20T10:49:00Z",
          "vehicleBrand": "",
          "vehicleModel": ""
        },
        {
          "account": "PRIVATE",
          "chargingType": "AC",
          "clockSrc": "INVALID",
          "costs": 44.6,
          "duration": 3533,
          "endSoc": 0,
          "endTime": "2018-07-21T03:56:53Z",
          "energySumKwh": 59.06,
          "pcid": "",
          "selfEnergy": 13.66,
          "sessionId": 111,
          "startSoc": 0,
          "startTime": "2018-07-21T02:58:00Z",
          "vehicleBrand": "",
          "vehicleModel": ""
        },
        {
          "account": "PRIVATE",
          "chargingType": "AC",
          "clockSrc": "INVALID",
          "costs": 20.08,
          "duration": 5586,
          "endSoc": 0,
          "endTime": "2018-07-22T07:46:06Z",
          "energySumKwh": 86,
          "pcid": "",
          "selfEnergy": 19.19,
          "sessionId": 112,
          "startSoc": 0,
          "startTime": "2018-07-22T06:13:00Z",
          "vehicleBrand": "",
          "vehicleModel": ""
        },
        {
          "account": "PRIVATE",
          "chargingType": "AC",
          "clockSrc": "NTP",
          "costs": 41.02,
          "duration": 5028,
          "endSoc": 0,
          "endTime": "2018-07-24T01:03:48Z",
          "energySumKwh": 69.67,
          "pcid": "",
          "selfEnergy": 15.12,
          "sessionId": 113,
          "startSoc": 0,
          "startTime": "2018-07-23T23:40:00Z",
          "vehicleBrand": "",
          "vehicleModel": ""
        },
        {
          "account": "BUSINESS",
          "chargingType": "AC",
          "clockSrc": "INVALID",
          "costs": 28.89,
          "duration": 7897,
          "endSoc": 0,
          "endTime": "2018-07-24T08:47:37Z",
          "energySumKwh": 82.61,
          "pcid": "",
          "selfEnergy": 7.21,
          "sessionId": 114,
          "startSoc": 0,
          "startTime": "2018-07-24T06:36:00Z",
          "vehicleBrand": "",
          "vehicleModel": ""
        },
        {
          "account": "PRIVATE",
          "chargingType": "AC",
          "clockSrc": "INVALID",
          "costs": 29.45,
          "duration": 5942,
          "endSoc": 0,
          "endTime": "2018-07-25T22:13:02Z",
          "energySumKwh": 84.72,
          "pcid": "",
          "selfEnergy": 1.56,
          "sessionId": 115,
          "startSoc": 0,
          "startTime": "2018-07-25T20:34:00Z",
          "vehicleBrand": "",
          "vehicleModel": ""
        },
        {
          "account": "PRIVATE",
          "chargingType": "AC",
          "clockSrc": "INVALID",
          "costs": 27.01,
          "duration": 5214,
          "endSoc": 0,
          "endTime": "2018-07-26T22:35:54Z",
          "energySumKwh": 47.78,
          "pcid": "",
          "selfEnergy": 8.71,
          "sessionId": 116,
          "startSoc": 0,
          "startTime": "2018-07-26T21:09:00Z",
          "vehicleBrand": "",
          "vehicleModel": ""
        },
        {
          "account": "BUSINESS",
          "chargingType": "AC",
          "clockSrc": "INVALID",
          "costs": 34.5,
          "duration": 846,
          "endSoc": 0,
          "endTime": "2018-07-27T21:54:06Z",
          "energySumKwh": 72.2,
          "pcid": "",
          "selfEnergy": 2.04,
          "sessionId": 117,
          "startSoc": 0,
          "startTime": "2018-07-27T21:40:00Z",
          "vehicleBrand": "",
          "vehicleModel": ""
        },
        {
          "account": "BUSINESS",
          "chargingType": "AC",
          "clockSrc": "INVALID",
          "costs": 17.41,
          "duration": 9324,
          "endSoc": 0,
          "endTime": "2018-07-28T18:55:24Z",
          "energySumKwh": 63.32,
          "pcid": "",
          "selfEnergy": 14.09,
          "sessionId": 118,
          "startSoc": 0,
          "startTime": "2018-07-28T16:20:00Z",
          "vehicleBrand": "",
          "vehicleModel": ""
        },
        {
          "account": "BUSINESS",
          "chargingType": "AC",
          "clockSrc": "NTP",
          "costs": 34.44,
          "duration": 4296,
          "endSoc": 0,
          "endTime": "2018-07-29T22:53:36Z",
          "energySumKwh": 89.75,
          "pcid": "",
          "selfEnergy": 16.33,
          "sessionId": 119,
          "startSoc": 0,
          "startTime": "2018-07-29T21:42:00Z",
          "vehicleBrand": "",
          "vehicleModel": ""
        },
        {
          "account": "PRIVATE",
          "chargingType": "AC",
          "clockSrc": "INVALID",
          "costs": 27.49,
          "duration": 6446,
          "endSoc": 0,
          "endTime": "2018-07-30T23:44:26Z",
          "energySumKwh": 82.22,
          "pcid": "",
          "selfEnergy": 17.44,
          "sessionId": 120,
          "startSoc": 0,
          "startTime": "2018-07-30T21:57:00Z",
          "vehicleBrand": "",
          "vehicleModel": ""
        },
        {
          "account": "BUSINESS",
          "chargingType": "AC",
          "clockSrc": "NTP",
          "costs": 20.58,
          "duration": 1186,
          "endSoc": 0,
          "endTime": "2018-08-01T22:26:46Z",
          "energySumKwh": 50.32,
          "pcid": "",
          "selfEnergy": 7.18,
          "sessionId": 121,
          "startSoc": 0,
          "startTime": "2018-08-01T22:07:00Z",
          "vehicleBrand": "",
          "vehicleModel": ""
        },
        {
          "account": "PRIVATE",
          "chargingType": "AC",
          "clockSrc": "INVALID",
          "costs": 26.58,
          "duration": 7581,
          "endSoc": 0,
          "endTime": "2018-08-02T09:00:21Z",
          "energySumKwh": 22.71,
          "pcid": "",
          "selfEnergy": 19.03,
          "sessionId": 122,
          "startSoc": 0,
          "startTime": "2018-08-02T06:54:00Z",
          "vehicleBrand": "",
          "vehicleModel": ""
        },
        {
          "account": "BUSINESS",
          "chargingType": "AC",
          "clockSrc": "NTP",
          "costs": 21.01,
          "duration": 4496,
          "endSoc": 0,
          "endTime": "2018-08-03T10:49:56Z",
          "energySumKwh": 31.16,
          "pcid": "",
          "selfEnergy": 2.11,
          "sessionId": 123,
          "startSoc": 0,
          "startTime": "2018-08-03T09:35:00Z",
          "vehicleBrand": "",
          "vehicleModel": ""
        },
        {
          "account": "PRIVATE",
          "chargingType": "AC",
          "clockSrc": "NTP",
          "costs": 17.63,
          "duration": 1164,
          "endSoc": 0,
          "endTime": "2018-08-04T09:58:24Z",
          "energySumKwh": 70.22,
          "pcid": "",
          "selfEnergy": 16.63,
          "sessionId": 124,
          "startSoc": 0,
          "startTime": "2018-08-04T09:39:00Z",
          "vehicleBrand": "",
          "vehicleModel": ""
        },
        {
          "account": "BUSINESS",
          "chargingType": "AC",
          "clockSrc": "INVALID",
          "costs": 22.58,
          "duration": 5198,
          "endSoc": 0,
          "endTime": "2018-08-05T11:31:38Z",
          "energySumKwh": 30.49,
          "pcid": "",
          "selfEnergy": 9.51,
          "sessionId": 125,
          "startSoc": 0,
          "startTime": "2018-08-05T10:05:00Z",
          "vehicleBrand": "",
          "vehicleModel": ""
        },
        {
          "account": "BUSINESS",
          "chargingType": "AC",
          "clockSrc": "NTP",
          "costs": 30.53,
          "duration": 6094,
          "endSoc": 0,
          "endTime": "2018-08-06T13:47:34Z",
          "energySumKwh": 70.82,
          "pcid": "",
          "selfEnergy": 13.95,
          "sessionId": 126,
          "startSoc": 0,
          "startTime": "2018-08-06T12:06:00Z",
          "vehicleBrand": "",
          "vehicleModel": ""
        },
        {
          "account": "PRIVATE",
          "chargingType": "AC",
          "clockSrc": "NTP",
          "costs": 43.96,
          "duration": 2535,
          "endSoc": 0,
          "endTime": "2018-08-07T13:51:15Z",
          "energySumKwh": 30.59,
          "pcid": "",
          "selfEnergy": 9.62,
          "sessionId": 127,
          "startSoc": 0,
          "startTime": "2018-08-07T13:09:00Z",
          "vehicleBrand": "",
          "vehicleModel": ""
        },
        {
          "account": "PRIVATE",
          "chargingType": "AC",
          "clockSrc": "NTP",
          "costs": 33.9,
          "duration": 3312,
          "endSoc": 0,
          "endTime": "2018-08-08T14:24:12Z",
          "energySumKwh": 29.42,
          "pcid": "",
          "selfEnergy": 9.01,
          "sessionId": 128,
          "startSoc": 0,
          "startTime": "2018-08-08T13:29:00Z",
          "vehicleBrand": "",
          "vehicleModel": ""
        },
        {
          "account": "PRIVATE",
          "chargingType": "AC",
          "clockSrc": "INVALID",
          "costs": 24.55,
          "duration": 4198,
          "endSoc": 0,
          "endTime": "2018-08-09T16:11:58Z",
          "energySumKwh": 58.93,
          "pcid": "",
          "selfEnergy": 1.75,
          "sessionId": 129,
          "startSoc": 0,
          "startTime": "2018-08-09T15:02:00Z",
          "vehicleBrand": "",
          "vehicleModel": ""
        },
        {
          "account": "PRIVATE",
          "chargingType": "AC",
          "clockSrc": "INVALID",
          "costs": 39.89,
          "duration": 4067,
          "endSoc": 0,
          "endTime": "2018-08-10T17:48:47Z",
          "energySumKwh": 54.85,
          "pcid": "",
          "selfEnergy": 1.21,
          "sessionId": 130,
          "startSoc": 0,
          "startTime": "2018-08-10T16:41:00Z",
          "vehicleBrand": "",
          "vehicleModel": ""
        },
        {
          "account": "PRIVATE",
          "chargingType": "AC",
          "clockSrc": "NTP",
          "costs": 32.88,
          "duration": 9510,
          "endSoc": 0,
          "endTime": "2018-08-11T20:09:30Z",
          "energySumKwh": 71.86,
          "pcid": "",
          "selfEnergy": 2.31,
          "sessionId": 131,
          "startSoc": 0,
          "startTime": "2018-08-11T17:31:00Z",
          "vehicleBrand": "",
          "vehicleModel": ""
        },
        {
          "account": "PRIVATE",
          "chargingType": "AC",
          "clockSrc": "NTP",
          "costs": 34.62,
          "duration": 1676,
          "endSoc": 0,
          "endTime": "2018-08-12T20:02:56Z",
          "energySumKwh": 36.92,
          "pcid": "",
          "selfEnergy": 7.97,
          "sessionId": 132,
          "startSoc": 0,
          "startTime": "2018-08-12T19:35:00Z",
          "vehicleBrand": "",
          "vehicleModel": ""
        },
        {
          "account": "PRIVATE",
          "chargingType": "AC",
          "clockSrc": "INVALID",
          "costs": 33.77,
          "duration": 2414,
          "endSoc": 0,
          "endTime": "2018-08-13T20:29:14Z",
          "energySumKwh": 48.21,
          "pcid": "",
          "selfEnergy": 14.83,
          "sessionId": 133,
          "startSoc": 0,
          "startTime": "2018-08-13T19:49:00Z",
          "vehicleBrand": "",
          "vehicleModel": ""
        },
        {
          "account": "BUSINESS",
          "chargingType": "AC",
          "clockSrc": "NTP",
          "costs": 26.85,
          "duration": 3154,
          "endSoc": 0,
          "endTime": "2018-08-14T20:46:34Z",
          "energySumKwh": 78.78,
          "pcid": "",
          "selfEnergy": 5.11,
          "sessionId": 134,
          "startSoc": 0,
          "startTime": "2018-08-14T19:54:00Z",
          "vehicleBrand": "",
          "vehicleModel": ""
        },
        {
          "account": "PRIVATE",
          "chargingType": "AC",
          "clockSrc": "NTP",
          "costs": 18.81,
          "duration": 5406,
          "endSoc": 0,
          "endTime": "2018-08-15T21:30:06Z",
          "energySumKwh": 63.82,
          "pcid": "",
          "selfEnergy": 5.1,
          "sessionId": 135,
          "startSoc": 0,
          "startTime": "2018-08-15T20:00:00Z",
          "vehicleBrand": "",
          "vehicleModel": ""
        },
        {
          "account": "PRIVATE",
          "chargingType": "AC",
          "clockSrc": "NTP",
          "costs": 36.93,
          "duration": 1053,
          "endSoc": 0,
          "endTime": "2018-08-16T20:35:33Z",
          "energySumKwh": 30.34,
          "pcid": "",
          "selfEnergy": 5.85,
          "sessionId": 136,
          "startSoc": 0,
          "startTime": "2018-08-16T20:18:00Z",
          "vehicleBrand": "",
          "vehicleModel": ""
        },
        {
          "account": "BUSINESS",
          "chargingType": "AC",
          "clockSrc": "INVALID",
          "costs": 17.87,
          "duration": 10212,
          "endSoc": 0,
          "endTime": "2018-08-17T18:48:12Z",
          "energySumKwh": 48.26,
          "pcid": "",
          "selfEnergy": 19.5,
          "sessionId": 137,
          "startSoc": 0,
          "startTime": "2018-08-17T15:58:00Z",
          "vehicleBrand": "",
          "vehicleModel": ""
        },
        {
          "account": "PRIVATE",
          "chargingType": "AC",
          "clockSrc": "INVALID",
          "costs": 24.13,
          "duration": 5771,
          "endSoc": 0,
          "endTime": "2018-08-19T00:19:11Z",
          "energySumKwh": 64.47,
          "pcid": "",
          "selfEnergy": 18.72,
          "sessionId": 138,
          "startSoc": 0,
          "startTime": "2018-08-18T22:43:00Z",
          "vehicleBrand": "",
          "vehicleModel": ""
        },
        {
          "account": "BUSINESS",
          "chargingType": "AC",
          "clockSrc": "INVALID",
          "costs": 32.34,
          "duration": 9590,
          "endSoc": 0,
          "endTime": "2018-08-20T02:01:50Z",
          "energySumKwh": 84.78,
          "pcid": "",
          "selfEnergy": 18.07,
          "sessionId": 139,
          "startSoc": 0,
          "startTime": "2018-08-19T23:22:00Z",
          "vehicleBrand": "",
          "vehicleModel": ""
        },
        {
          "account": "PRIVATE",
          "chargingType": "AC",
          "clockSrc": "NTP",
          "costs": 42.77,
          "duration": 7729,
          "endSoc": 0,
          "endTime": "2018-08-20T19:46:49Z",
          "energySumKwh": 33.48,
          "pcid": "",
          "selfEnergy": 2.68,
          "sessionId": 140,
          "startSoc": 0,
          "startTime": "2018-08-20T17:38:00Z",
          "vehicleBrand": "",
          "vehicleModel": ""
        },
        {
          "account": "BUSINESS",
          "chargingType": "AC",
          "clockSrc": "INVALID",
          "costs": 28.84,
          "duration": 5221,
          "endSoc": 0,
          "endTime": "2018-08-21T04:32:01Z",
          "energySumKwh": 40.31,
          "pcid": "",
          "selfEnergy": 4.13,
          "sessionId": 141,
          "startSoc": 0,
          "startTime": "2018-08-21T03:05:00Z",
          "vehicleBrand": "",
          "vehicleModel": ""
        },
        {
          "account": "PRIVATE",
          "chargingType": "AC",
          "clockSrc": "INVALID",
          "costs": 44.7,
          "duration": 6466,
          "endSoc": 0,
          "endTime": "2018-08-22T06:47:46Z",
          "energySumKwh": 83.29,
          "pcid": "",
          "selfEnergy": 10.86,
          "sessionId": 142,
          "startSoc": 0,
          "startTime": "2018-08-22T05:00:00Z",
          "vehicleBrand": "",
          "vehicleModel": ""
        },
        {
          "account": "BUSINESS",
          "chargingType": "AC",
          "clockSrc": "INVALID",
          "costs": 22.82,
          "duration": 7889,
          "endSoc": 0,
          "endTime": "2018-08-23T13:11:29Z",
          "energySumKwh": 28.18,
          "pcid": "",
          "selfEnergy": 13.65,
          "sessionId": 143,
          "startSoc": 0,
          "startTime": "2018-08-23T11:00:00Z",
          "vehicleBrand": "",
          "vehicleModel": ""
        },
        {
          "account": "PRIVATE",
          "chargingType": "AC",
          "clockSrc": "NTP",
          "costs": 20.65,
          "duration": 5519,
          "endSoc": 0,
          "endTime": "2018-08-24T13:21:59Z",
          "energySumKwh": 49.72,
          "pcid": "",
          "selfEnergy": 18.92,
          "sessionId": 144,
          "startSoc": 0,
          "startTime": "2018-08-24T11:50:00Z",
          "vehicleBrand": "",
          "vehicleModel": ""
        },
        {
          "account": "BUSINESS",
          "chargingType": "AC",
          "clockSrc": "INVALID",
          "costs": 35.71,
          "duration": 5280,
          "endSoc": 0,
          "endTime": "2018-08-25T13:48:00Z",
          "energySumKwh": 55.74,
          "pcid": "",
          "selfEnergy": 19.84,
          "sessionId": 145,
          "startSoc": 0,
          "startTime": "2018-08-25T12:20:00Z",
          "vehicleBrand": "",
          "vehicleModel": ""
        },
        {
          "account": "PRIVATE",
          "chargingType": "AC",
          "clockSrc": "NTP",
          "costs": 28.55,
          "duration": 5266,
          "endSoc": 0,
          "endTime": "2018-08-26T15:27:46Z",
          "energySumKwh": 78.94,
          "pcid": "",
          "selfEnergy": 13.88,
          "sessionId": 146,
          "startSoc": 0,
          "startTime": "2018-08-26T14:00:00Z",
          "vehicleBrand": "",
          "vehicleModel": ""
        },
        {
          "account": "BUSINESS",
          "chargingType": "AC",
          "clockSrc": "INVALID",
          "costs": 23.59,
          "duration": 8318,
          "endSoc": 0,
          "endTime": "2018-08-27T20:48:38Z",
          "energySumKwh": 89.16,
          "pcid": "",
          "selfEnergy": 9.97,
          "sessionId": 147,
          "startSoc": 0,
          "startTime": "2018-08-27T18:30:00Z",
          "vehicleBrand": "",
          "vehicleModel": ""
        },
        {
          "account": "BUSINESS",
          "chargingType": "AC",
          "clockSrc": "NTP",
          "costs": 26.68,
          "duration": 4205,
          "endSoc": 0,
          "endTime": "2018-08-28T21:10:05Z",
          "energySumKwh": 25.43,
          "pcid": "",
          "selfEnergy": 10.45,
          "sessionId": 148,
          "startSoc": 0,
          "startTime": "2018-08-28T20:00:00Z",
          "vehicleBrand": "",
          "vehicleModel": ""
        },
        {
          "account": "BUSINESS",
          "chargingType": "AC",
          "clockSrc": "NTP",
          "costs": 38.09,
          "duration": 11504,
          "endSoc": 0,
          "endTime": "2018-08-30T01:11:44Z",
          "energySumKwh": 34.15,
          "pcid": "",
          "selfEnergy": 1.61,
          "sessionId": 149,
          "startSoc": 0,
          "startTime": "2018-08-29T22:00:00Z",
          "vehicleBrand": "",
          "vehicleModel": ""
        },
        {
          "account": "BUSINESS",
          "chargingType": "AC",
          "clockSrc": "INVALID",
          "costs": 27.35,
          "duration": 1873,
          "endSoc": 0,
          "endTime": "2018-08-30T23:51:13Z",
          "energySumKwh": 84.14,
          "pcid": "",
          "selfEnergy": 13.13,
          "sessionId": 150,
          "startSoc": 0,
          "startTime": "2018-08-30T23:20:00Z",
          "vehicleBrand": "",
          "vehicleModel": ""
        }
      ],
      "first": false,
      "last": false,
      "number": 1,
      "numberOfElements": 50,
      "size": 50,
      "sort": [
        {
          "ascending": false,
          "descending": true,
          "direction": "DESC",
          "ignoreCase": false,
          "nullHandling": "NATIVE",
          "property": "startTime"
        }
      ],
      "totalElements": 200,
      "totalPages": 4
    },
    "status": 200
  }
}