{
  "request": {
    "method": "GET",
    "queryParameters": {
      "account": {
        "absent": true
      },
      "page": {
        "matches": "2"
      },
      "size": {
        "matches": "50"
      },
      "sort": {
        "matches": "startTime,desc"
      }
    },
    "urlPath": "/icf/ilfsta/history/0000584_8"
  },
  "response": {
    "headers": {
      "Content-Type": "application/json; charset=utf-8"
    },
    "jsonBody": {
      "content": [
        {
          "account": "PRIVATE",
          "chargingType": "AC",
          "clockSrc": "NTP",
          "costs": 29.71,
          "duration": 8708,
          "endSoc": 0,
          "endTime": "2018-05-21T03:15:08Z",
          "energySumKwh": 82.76,
          "pcid": "",
          "selfEnergy": 8.33,
          "sessionId": 51,
          "startSoc": 0,
          "startTime": "2018-05-21T00:50:00Z",
          "vehicleBrand": "",
          "vehicleModel": ""
        },
        {
          "account": "BUSINESS",
          "chargingType": "AC",
          "clockSrc": "INVALID",
          "costs": 24.47,
          "duration": 7855,
          "endSoc": 0,
          "endTime": "2018-05-22T03:18:55Z",
          "energySumKwh": 57.6,
          "pcid": "",
          "selfEnergy": 15.25,
          "sessionId": 52,
          "startSoc": 0,
          "startTime": "2018-05-22T01:08:00Z",
          "vehicleBrand": "",
          "vehicleModel": ""
        },
        {
          "account": "BUSINESS",
          "chargingType": "AC",
          "clockSrc": "NTP",
          "costs": 26.09,
          "duration": 10581,
          "endSoc": 0,
          "endTime": "2018-05-23T04:23:21Z",
          "energySumKwh": 69.59,
          "pcid": "",
          "selfEnergy": 1.83,
          "sessionId": 53,
          "startSoc": 0,
          "startTime": "2018-05-23T01:27:00Z",
          "vehicleBrand": "",
          "vehicleModel": ""
        },
        {
          "account": "PRIVATE",
          "chargingType": "AC",
          "clockSrc": "INVALID",
          "costs": 19.04,
          "duration": 5807,
          "endSoc": 0,
          "endTime": "2018-05-24T19:25:47Z",
          "energySumKwh": 39.61,
          "pcid": "",
          "selfEnergy": 19.22,
          "sessionId": 54,
          "startSoc": 0,
          "startTime": "2018-05-24T17:49:00Z",
          "vehicleBrand": "",
          "vehicleModel": ""
        },
        {
          "account": "BUSINESS",
          "chargingType": "AC",
          "clockSrc": "NTP",
          "costs": 33.8,
          "duration": 5612,
          "endSoc": 0,
          "endTime": "2018-05-25T19:37:32Z",
          "energySumKwh": 75.95,
          "pcid": "",
          "selfEnergy": 3.29,
          "sessionId": 55,
          "startSoc": 0,
          "startTime": "2018-05-25T18:04:00Z",
          "vehicleBrand": "",
          "vehicleModel": ""
        },
        {
          "account": "PRIVATE",
          "chargingType": "AC",
          "clockSrc": "INVALID",
          "costs": 34.06,
          "duration": 8668,
          "endSoc": 0,
          "endTime": "2018-05-26T21:18:28Z",
          "energySumKwh": 26.81,
          "pcid": "",
          "selfEnergy": 18.33,
          "sessionId": 56,
          "startSoc": 0,
          "startTime": "2018-05-26T18:54:00Z",
          "vehicleBrand": "",
          "vehicleModel": ""
        },
        {
          "account": "PRIVATE",
          "chargingType": "AC",
          "clockSrc": "NTP",
          "costs": 30.24,
          "duration": 3098,
          "endSoc": 0,
          "endTime": "2018-05-27T02:46:38Z",
          "energySumKwh": 29.74,
          "pcid": "",
          "selfEnergy": 17.46,
          "sessionId": 57,
          "startSoc": 0,
          "startTime": "2018-05-27T01:55:00Z",
          "vehicleBrand": "",
          "vehicleModel": ""
        },
        {
          "account": "BUSINESS",
          "chargingType": "AC",
          "clockSrc": "NTP",
          "costs": 40.25,
          "duration": 9199,
          "endSoc": 0,
          "endTime": "2018-05-28T05:24:19Z",
          "energySumKwh": 53.22,
          "pcid": "",
          "selfEnergy": 12.79,
          "sessionId": 58,
          "startSoc": 0,
          "startTime": "2018-05-28T02:51:00Z",
          "vehicleBrand": "",
          "vehicleModel": ""
        },
        {
          "account": "PRIVATE",
          "chargingType": "AC",
          "clockSrc": "NTP",
          "costs": 24.18,
          "duration": 8093,
          "endSoc": 0,
          "endTime": "2018-05-29T12:29:53Z",
          "energySumKwh": 75.26,
          "pcid": "",
          "selfEnergy": 7.87,
          "sessionId": 59,
          "startSoc": 0,
          "startTime": "2018-05-29T10:15:00Z",
          "vehicleBrand": "",
          "vehicleModel": ""
        },
        {
          "account": "BUSINESS",
          "chargingType": "AC",
          "clockSrc": "NTP",
          "costs": 37.86,
          "duration": 8039,
          "endSoc": 0,
          "endTime": "2018-05-30T13:02:59Z",
          "energySumKwh": 51.8,
          "pcid": "",
          "selfEnergy": 16.24,
          "sessionId": 60,
          "startSoc": 0,
          "startTime": "2018-05-30T10:49:00Z",
          "vehicleBrand": "",
          "vehicleModel": ""
        },
        {
          "account": "BUSINESS",
          "chargingType": "AC",
          "clockSrc": "INVALID",
          "costs": 23.62,
          "duration": 3533,
          "endSoc": 0,
          "endTime": "2018-06-01T03:56:53Z",
          "energySumKwh": 45.02,
          "pcid": "",
          "selfEnergy": 3.9,
          "sessionId": 61,
          "startSoc": 0,
          "startTime": "2018-06-01T02:58:00Z",
          "vehicleBrand": "",
          "vehicleModel": ""
        },
        {
          "account": "PRIVATE",
          "chargingType": "AC",
          "clockSrc": "NTP",
          "costs": 31.05,
          "duration": 5586,
          "endSoc": 0,
          "endTime": "2018-06-02T07:46:06Z",
          "energySumKwh": 48.27,
          "pcid": "",
          "selfEnergy": 12.52,
          "sessionId": 62,
          "startSoc": 0,
          "startTime": "2018-06-02T06:13:00Z",
          "vehicleBrand": "",
          "vehicleModel": ""
        },
        {
          "account": "PRIVATE",
          "chargingType": "AC",
          "clockSrc": "INVALID",
          "costs": 35.51,
          "duration": 5028,
          "endSoc": 0,
          "endTime": "2018-06-04T01:03:48Z",
          "energySumKwh": 71.96,
          "pcid": "",
          "selfEnergy": 18.25,
          "sessionId": 63,
          "startSoc": 0,
          "startTime": "2018-06-03T23:40:00Z",
          "vehicleBrand": "",
          "vehicleModel": ""
        },
        {
          "account": "BUSINESS",
          "chargingType": "AC",
          "clockSrc": "INVALID",
          "costs": 44.29,
          "duration": 7897,
          "endSoc": 0,
          "endTime": "2018-06-04T08:47:37Z",
          "energySumKwh": 68.66,
          "pcid": "",
          "selfEnergy": 13.35,
          "sessionId": 64,
          "startSoc": 0,
          "startTime": "2018-06-04T06:36:00Z",
          "vehicleBrand": "",
          "vehicleModel": ""
        },
        {
          "account": "BUSINESS",
          "chargingType": "AC",
          "clockSrc": "NTP",
          "costs": 17.95,
          "duration": 5942,
          "endSoc": 0,
          "endTime": "2018-06-05T22:13:02Z",
          "energySumKwh": 68.86,
          "pcid": "",
          "selfEnergy": 1.37,
          "sessionId": 65,
          "startSoc": 0,
          "startTime": "2018-06-05T20:34:00Z",
          "vehicleBrand": "",
          "vehicleModel": ""
        },
        {
          "account": "BUSINESS",
          "chargingType": "AC",
          "clockSrc": "INVALID",
          "costs": 29.1,
          "duration": 5214,
          "endSoc": 0,
          "endTime": "2018-06-06T22:35:54Z",
          "energySumKwh": 59.64,
          "pcid": "",
          "selfEnergy": 12.2,
          "sessionId": 66,
          "startSoc": 0,
          "startTime": "2018-06-06T21:09:00Z",
          "vehicleBrand": "",
          "vehicleModel": ""
        },
        {
          "account": "PRIVATE",
          "chargingType": "AC",
          "clockSrc": "NTP",
          "costs": 38.72,
          "duration": 846,
          "endSoc": 0,
          "endTime": "2018-06-07T21:54:06Z",
          "energySumKwh": 59.98,
          "pcid": "",
          "selfEnergy": 1.3,
          "sessionId": 67,
          "startSoc": 0,
          "startTime": "2018-06-07T21:40:00Z",
          "vehicleBrand": "",
          "vehicleModel": ""
        },
        {
          "account": "PRIVATE",
          "chargingType": "AC",
          "clockSrc": "NTP",
          "costs": 36.86,
          "duration": 9324,
          "endSoc": 0,
          "endTime": "2018-06-08T18:55:24Z",
          "energySumKwh": 27.45,
          "pcid": "",
          "selfEnergy": 11.19,
          "sessionId": 68,
          "startSoc": 0,
          "startTime": "2018-06-08T16:20:00Z",
          "vehicleBrand": "",
          "vehicleModel": ""
        },
        {
          "account": "BUSINESS",
          "chargingType": "AC",
          "clockSrc": "NTP",
          "costs": 29.45,
          "duration": 4296,
          "endSoc": 0,
          "endTime": "2018-06-09T22:53:36Z",
          "energySumKwh": 32.04,
          "pcid": "",
          "selfEnergy": 9.62,
          "sessionId": 69,
          "startSoc": 0,
          "startTime": "2018-06-09T21:42:00Z",
          "vehicleBrand": "",
          "vehicleModel": ""
        },
        {
          "account": "BUSINESS",
          "chargingType": "AC",
          "clockSrc": "INVALID",
          "costs": 22.01,
          "duration": 6446,
          "endSoc": 0,
          "endTime": "2018-06-10T23:44:26Z",
          "energySumKwh": 69.28,
          "pcid": "",
          "selfEnergy": 12.68,
          "sessionId": 70,
          "startSoc": 0,
          "startTime": "2018-06-10T21:57:00Z",
          "vehicleBrand": "",
          "vehicleModel": ""
        },
        {
          "account": "PRIVATE",
          "chargingType": "AC",
          "clockSrc": "NTP",
          "costs": 15.18,
          "duration": 1186,
          "endSoc": 0,
          "endTime": "2018-06-11T22:26:46Z",
          "energySumKwh": 37.68,
          "pcid": "",
          "selfEnergy": 3.28,
          "sessionId": 71,
          "startSoc": 0,
          "startTime": "2018-06-11T22:07:00Z",
          "vehicleBrand": "",
          "vehicleModel": ""
        },
        {
          "account": "BUSINESS",
          "chargingType": "AC",
          "clockSrc": "INVALID",
          "costs": 25.18,
          "duration": 7581,
          "endSoc": 0,
          "endTime": "2018-06-12T09:00:21Z",
          "energySumKwh": 36.63,
          "pcid": "",
          "selfEnergy": 1.87,
          "sessionId": 72,
          "startSoc": 0,
          "startTime": "2018-06-12T06:54:00Z",
          "vehicleBrand": "",
          "vehicleModel": ""
        },
        {
          "account": "BUSINESS",
          "chargingType": "AC",
          "clockSrc": "INVALID",
          "costs": 40.83,
          "duration": 4496,
          "endSoc": 0,
          "endTime": "2018-06-13T10:49:56Z",
          "energySumKwh": 32.71,
          "pcid": "",
          "selfEnergy": 14.75,
          "sessionId": 73,
          "startSoc": 0,
          "startTime": "2018-06-13T09:35:00Z",
          "vehicleBrand": "",
          "vehicleModel": ""
        },
        {
          "account": "PRIVATE",
          "chargingType": "AC",
          "clockSrc": "INVALID",
          "costs": 34.84,
          "duration": 1164,
          "endSoc": 0,
          "endTime": "2018-06-14T09:58:24Z",
          "energySumKwh": 78.45,
          "pcid": "",
          "selfEnergy": 9.37,
          "sessionId": 74,
          "startSoc": 0,
          "startTime": "2018-06-14T09:39:00Z",
          "vehicleBrand": "",
          "vehicleModel": ""
        },
        {
          "account": "PRIVATE",
          "chargingType": "AC",
          "clockSrc": "NTP",
          "costs": 43.06,
          "duration": 5198,
          "endSoc": 0,
          "endTime": "2018-06-15T11:31:38Z",
          "energySumKwh": 48.61,
          "pcid": "",
          "selfEnergy": 4.56,
          "sessionId": 75,
          "startSoc": 0,
          "startTime": "2018-06-15T10:05:00Z",
          "vehicleBrand": "",
          "vehicleModel": ""
        },
        {
          "account": "PRIVATE",
          "chargingType": "AC",
          "clockSrc": "NTP",
          "costs": 28.91,
          "duration": 6094,
          "endSoc": 0,
          "endTime": "2018-06-16T13:47:34Z",
          "energySumKwh": 43.04,
          "pcid": "",
          "selfEnergy": 10.5,
          "sessionId": 76,
          "startSoc": 0,
          "startTime": "2018-06-16T12:06:00Z",
          "vehicleBrand": "",
          "vehicleModel": ""
        },
        {
          "account": "BUSINESS",
          "chargingType": "AC",
          "clockSrc": "NTP",
          "costs": 29.42,
          "duration": 2535,
          "endSoc": 0,
          "endTime": "2018-06-17T13:51:15Z",
          "energySumKwh": 68.67,
          "pcid": "",
          "selfEnergy": 9,
          "sessionId": 77,
          "startSoc": 0,
          "startTime": "2018-06-17T13:09:00Z",
          "vehicleBrand": "",
          "vehicleModel": ""
        },
        {
          "account": "PRIVATE",
          "chargingType": "AC",
          "clockSrc": "NTP",
          "costs": 35.82,
          "duration": 3312,
          "endSoc": 0,
          "endTime": "2018-06-18T14:24:12Z",
          "energySumKwh": 59.62,
          "pcid": "",
          "selfEnergy": 11.33,
          "sessionId": 78,
          "startSoc": 0,
          "startTime": "2018-06-18T13:29:00Z",
          "vehicleBrand": "",
          "vehicleModel": ""
        },
        {
          "account": "BUSINESS",
          "chargingType": "AC",
          "clockSrc": "NTP",
          "costs": 30.43,
          "duration": 4198,
          "endSoc": 0,
          "endTime": "2018-06-19T16:11:58Z",
          "energySumKwh": 62.8,
          "pcid": "",
          "selfEnergy": 16.56,
          "sessionId": 79,
          "startSoc": 0,
          "startTime": "2018-06-19T15:02:00Z",
          "vehicleBrand": "",
          "vehicleModel": ""
        },
        {
          "account": "BUSINESS",
          "chargingType": "AC",
          "clockSrc": "INVALID",
          "costs": 37.45,
          "duration": 4067,
          "endSoc": 0,
          "endTime": "2018-06-20T17:48:47Z",
          "energySumKwh": 87.09,
          "pcid": "",
          "selfEnergy": 13.93,
          "sessionId": 80,
          "startSoc": 0,
          "startTime": "2018-06-20T16:41:00Z",
          "vehicleBrand": "",
          "vehicleModel": ""
        },
        {
          "account": "BUSINESS",
          "chargingType": "AC",
          "clockSrc": "INVALID",
          "costs": 26.52,
          "duration": 9510,
          "endSoc": 0,
          "endTime": "2018-06-21T20:09:30Z",
          "energySumKwh": 72.94,
          "pcid": "",
          "selfEnergy": 2.64,
          "sessionId": 81,
          "startSoc": 0,
          "startTime": "2018-06-21T17:31:00Z",
          "vehicleBrand": "",
          "vehicleModel": ""
        },
        {
          "account": "BUSINESS",
          "chargingType": "AC",
          "clockSrc": "NTP",
          "costs": 32.77,
          "duration": 1676,
          "endSoc": 0,
          "endTime": "2018-06-22T20:02:56Z",
          "energySumKwh": 20.17,
          "pcid": "",
          "selfEnergy": 15.72,
          "sessionId": 82,
          "startSoc": 0,
          "startTime": "2018-06-22T19:35:00Z",
          "vehicleBrand": "",
          "vehicleModel": ""
        },
        {
          "account": "BUSINESS",
          "chargingType": "AC",
          "clockSrc": "NTP",
          "costs": 33.54,
          "duration": 2414,
          "endSoc": 0,
          "endTime": "2018-06-23T20:29:14Z",
          "energySumKwh": 66.77,
          "pcid": "",
          "selfEnergy": 18.37,
          "sessionId": 83,
          "startSoc": 0,
          "startTime": "2018-06-23T19:49:00Z",
          "vehicleBrand": "",
          "vehicleModel": ""
        },
        {
          "account": "PRIVATE",
          "chargingType": "AC",
          "clockSrc": "INVALID",
          "costs": 20.82,
          "duration": 3154,
          "endSoc": 0,
          "endTime": "2018-06-24T20:46:34Z",
          "energySumKwh": 41.48,
          "pcid": "",
          "selfEnergy": 15.29,
          "sessionId": 84,
          "startSoc": 0,
          "startTime": "2018-06-24T19:54:00Z",
          "vehicleBrand": "",
          "vehicleModel": ""
        },
        {
          "account": "BUSINESS",
          "chargingType": "AC",
          "clockSrc": "INVALID",
          "costs": 24.64,
          "duration": 5406,
          "endSoc": 0,
          "endTime": "2018-06-25T21:30:06Z",
          "energySumKwh": 31.04,
          "pcid": "",
          "selfEnergy": 11.45,
          "sessionId": 85,
          "startSoc": 0,
          "startTime": "2018-06-25T20:00:00Z",
          "vehicleBrand": "",
          "vehicleModel": ""
        },
        {
          "account": "PRIVATE",
          "chargingType": "AC",
          "clockSrc": "NTP",
          "costs": 33.08,
          "duration": 1053,
          "endSoc": 0,
          "endTime": "2018-06-26T20:35:33Z",
          "energySumKwh": 22.1,
          "pcid": "",
          "selfEnergy": 1.12,
          "sessionId": 86,
          "startSoc": 0,
          "startTime": "2018-06-26T20:18:00Z",
          "vehicleBrand": "",
          "vehicleModel": ""
        },
        {
          "account": "BUSINESS",
          "chargingType": "AC",
          "clockSrc": "INVALID",
          "costs": 17.66,
          "duration": 10212,
          "endSoc": 0,
          "endTime": "2018-06-27T18:48:12Z",
          "energySumKwh": 51.64,
          "pcid": "",
          "selfEnergy": 7.11,
          "sessionId": 87,
          "startSoc": 0,
          "startTime": "2018-06-27T15:58:00Z",
          "vehicleBrand": "",
          "vehicleModel": ""
        },
        {
          "account": "PRIVATE",
          "chargingType": "AC",
          "clockSrc": "NTP",
          "costs": 37.45,
          "duration": 5771,
          "endSoc": 0,
          "endTime": "2018-06-29T00:19:11Z",
          "energySumKwh": 47.26,
          "pcid": "",
          "selfEnergy": 10.75,
          "sessionId": 88,
          "startSoc": 0,
          "startTime": "2018-06-28T22:43:00Z",
          "vehicleBrand": "",
          "vehicleModel": ""
        },
        {
          "account": "PRIVATE",
          "chargingType": "AC",
          "clockSrc": "INVALID",
          "costs": 36,
          "duration": 9590,
          "endSoc": 0,
          "endTime": "2018-06-30T02:01:50Z",
          "energySumKwh": 78.74,
          "pcid": "",
          "selfEnergy": 3.66,
          "sessionId": 89,
          "startSoc": 0,
          "startTime": "2018-06-29T23:22:00Z",
          "vehicleBrand": "",
          "vehicleModel": ""
        },
        {
          "account": "PRIVATE",
          "chargingType": "AC",
          "clockSrc": "INVALID",
          "costs": 19.81,
          "duration": 7729,
          "endSoc": 0,
          "endTime": "2018-06-30T19:46:49Z",
          "energySumKwh": 53.07,
          "pcid": "",
          "selfEnergy": 15.39,
          "sessionId": 90,
          "startSoc": 0,
          "startTime": "2018-06-30T17:38:00Z",
          "vehicleBrand": "",
          "vehicleModel": ""
        },
        {
          "account": "PRIVATE",
          "chargingType": "AC",
          "clockSrc": "NTP",
          "costs": 23.39,
          "duration": 5221,
          "endSoc": 0,
          "endTime": "2018-07-01T04:32:01Z",
          "energySumKwh": 44.51,
          "pcid": "",
          "selfEnergy": 13.25,
          "sessionId": 91,
          "startSoc": 0,
          "startTime": "2018-07-01T03:05:00Z",
          "vehicleBrand": "",
          "vehicleModel": ""
        },
        {
          "account": "BUSINESS",
          "chargingType": "AC",
          "clockSrc": "NTP",
          "costs": 41.19,
          "duration": 6466,
          "endSoc": 0,
          "endTime": "2018-07-02T06:47:46Z",
          "energySumKwh": 31.13,
          "pcid": "",
          "selfEnergy": 7.92,
          "sessionId": 92,
          "startSoc": 0,
          "startTime": "2018-07-02T05:00:00Z",
          "vehicleBrand": "",
          "vehicleModel": ""
        },
        {
          "account": "BUSINESS",
          "chargingType": "AC",
          "clockSrc": "NTP",
          "costs": 40.77,
          "duration": 7889,
          "endSoc": 0,
          "endTime": "2018-07-03T13:11:29Z",
          "energySumKwh": 81.81,
          "pcid": "",
          "selfEnergy": 11.42,
          "sessionId": 93,
          "startSoc": 0,
          "startTime": "2018-07-03T11:00:00Z",
          "vehicleBrand": "",
          "vehicleModel": ""
        },
        {
          "account": "PRIVATE",
          "chargingType": "AC",
          "clockSrc": "NTP",
          "costs": 40.53,
          "duration": 5519,
          "endSoc": 0,
          "endTime": "2018-07-04T13:21:59Z",
          "energySumKwh": 23.7,
          "pcid": "",
          "selfEnergy": 7.06,
          "sessionId": 94,
          "startSoc": 0,
          "startTime": "2018-07-04T11:50:00Z",
          "vehicleBrand": "",
          "vehicleModel": ""
        },
        {
          "account": "PRIVATE",
          "chargingType": "AC",
          "clockSrc": "INVALID",
          "costs": 23.93,
          "duration": 5280,
          "endSoc": 0,
          "endTime": "2018-07-05T13:48:00Z",
          "energySumKwh": 57.96,
          "pcid": "",
          "selfEnergy": 2.65,
          "sessionId": 95,
          "startSoc": 0,
          "startTime": "2018-07-05T12:20:00Z",
          "vehicleBrand": "",
          "vehicleModel": ""
        },
        {
          "account": "BUSINESS",
          "chargingType": "AC",
          "clockSrc": "NTP",
          "costs": 31.41,
          "duration": 5266,
          "endSoc": 0,
          "endTime": "2018-07-06T15:27:46Z",
          "energySumKwh": 30.6,
          "pcid": "",
          "selfEnergy": 3.3,
          "sessionId": 96,
          "startSoc": 0,
          "startTime": "2018-07-06T14:00:00Z",
          "vehicleBrand": "",
          "vehicleModel": ""
        },
        {
          "account": "PRIVATE",
          "chargingType": "AC",
          "clockSrc": "INVALID",
          "costs": 21.68,
          "duration": 8318,
          "endSoc": 0,
          "endTime": "2018-07-07T20:48:38Z",
          "energySumKwh": 28.25,
          "pcid": "",
          "selfEnergy": 13.94,
          "sessionId": 97,
          "startSoc": 0,
          "startTime": "2018-07-07T18:30:00Z",
          "vehicleBrand": "",
          "vehicleModel": ""
        },
        {
          "account": "PRIVATE",
          "chargingType": "AC",
          "clockSrc": "NTP",
          "costs": 15.19,
          "duration": 4205,
          "endSoc": 0,
          "endTime": "2018-07-08T21:10:05Z",
          "energySumKwh": 69.31,
          "pcid": "",
          "selfEnergy": 7.26,
          "sessionId": 98,
          "startSoc": 0,
          "startTime": "2018-07-08T20:00:00Z",
          "vehicleBrand": "",
          "vehicleModel": ""
        },
        {
          "account": "BUSINESS",
          "chargingType": "AC",
          "clockSrc": "NTP",
          "costs": 18.96,
          "duration": 11504,
          "endSoc": 0,
          "endTime": "2018-07-10T01:11:44Z",
          "energySumKwh": 84.32,
          "pcid": "",
          "selfEnergy": 6.96,
          "sessionId": 99,
          "startSoc": 0,
          "startTime": "2018-07-09T22:00:00Z",
          "vehicleBrand": "",
          "vehicleModel": ""
        },
        {
          "account": "BUSINESS",
          "chargingType": "AC",
          "clockSrc": "INVALID",
          "costs": 41.76,
          "duration": 1873,
          "endSoc": 0,
          "endTime": "2018-07-10T23:51:13Z",
          "energySumKwh": 52.56,
          "pcid": "",
          "selfEnergy": 19.69,
          "sessionId": 100,
          "startSoc": 0,
          "startTime": "2018-07-10T23:20:00Z",
          "vehicleBrand": "",
          "vehicleModel": ""
        }
      ],
      "first": false,
      "last": false,
      "number": 2,
      "numberOfElements": 50,
      "size": 50,
      "sort": [
        {
          "ascending": false,
          "descending": true,
          "direction": "DESC",
          "ignoreCase": false,
          "nullHandling": "NATIVE",
          "property": "startTime"
        }
      ],
      "totalElements": 200,
      "totalPages": 4
    },
    "status": 200
  }
}