{
  "request": {
    "method": "GET",
    "queryParameters": {
      "account": {
        "absent": true
      },
      "page": {
        "absent": true
      },
      "size": {
        "matches": "50"
      },
      "sort": {
        "matches": "startTime,desc"
      }
    },
    "urlPath": "/icf/ilfsta/history/0000584_8"
  },
  "response": {
    "headers": {
      "Content-Type": "application/json; charset=utf-8"
    },
    "jsonBody": {
      "content": [
        {
          "account": "BUSINESS",
          "chargingType": "AC",
          "clockSrc": "NTP",
          "costs": 35.61,
          "duration": 8708,
          "endSoc": 0,
          "endTime": "2018-09-01T03:15:08Z",
          "energySumKwh": 47.06,
          "pcid": "",
          "selfEnergy": 2.82,
          "sessionId": 151,
          "startSoc": 0,
          "startTime": "2018-09-01T00:50:00Z",
          "vehicleBrand": "",
          "vehicleModel": ""
        },
        {
          "account": "BUSINESS",
          "chargingType": "AC",
          "clockSrc": "INVALID",
          "costs": 15.64,
          "duration": 7855,
          "endSoc": 0,
          "endTime": "2018-09-02T03:18:55Z",
          "energySumKwh": 63.66,
          "pcid": "",
          "selfEnergy": 16.97,
          "sessionId": 152,
          "startSoc": 0,
          "startTime": "2018-09-02T01:08:00Z",
          "vehicleBrand": "",
          "vehicleModel": ""
        },
        {
          "account": "PRIVATE",
          "chargingType": "AC",
          "clockSrc": "NTP",
          "costs": 19.05,
          "duration": 10581,
          "endSoc": 0,
          "endTime": "2018-09-03T04:23:21Z",
          "energySumKwh": 44.76,
          "pcid": "",
          "selfEnergy": 17.57,
          "sessionId": 153,
          "startSoc": 0,
          "startTime": "2018-09-03T01:27:00Z",
          "vehicleBrand": "",
          "vehicleModel": ""
        },
        {
          "account": "BUSINESS",
          "chargingType": "AC",
          "clockSrc": "INVALID",
          "costs": 44.95,
          "duration": 5807,
          "endSoc": 0,
          "endTime": "2018-09-04T19:25:47Z",
          "energySumKwh": 40.12,
          "pcid": "",
          "selfEnergy": 2.04,
          "sessionId": 154,
          "startSoc": 0,
          "startTime": "2018-09-04T17:49:00Z",
          "vehicleBrand": "",
          "vehicleModel": ""
        },
        {
          "account": "PRIVATE",
          "chargingType": "AC",
          "clockSrc": "NTP",
          "costs": 20.59,
          "duration": 5612,
          "endSoc": 0,
          "endTime": "2018-09-05T19:37:32Z",
          "energySumKwh": 89.52,
          "pcid": "",
          "selfEnergy": 1.28,
          "sessionId": 155,
          "startSoc": 0,
          "startTime": "2018-09-05T18:04:00Z",
          "vehicleBrand": "",
          "vehicleModel": ""
        },
        {
          "account": "BUSINESS",
          "chargingType": "AC",
          "clockSrc": "NTP",
          "costs": 16.98,
          "duration": 8668,
          "endSoc": 0,
          "endTime": "2018-09-06T21:18:28Z",
          "energySumKwh": 48.28,
          "pcid": "",
          "selfEnergy": 7.19,
          "sessionId": 156,
          "startSoc": 0,
          "startTime": "2018-09-06T18:54:00Z",
          "vehicleBrand": "",
          "vehicleModel": ""
        },
        {
          "account": "BUSINESS",
          "chargingType": "AC",
          "clockSrc": "INVALID",
          "costs": 23.4,
          "duration": 3098,
          "endSoc": 0,
          "endTime": "2018-09-07T02:46:38Z",
          "energySumKwh": 54.23,
          "pcid": "",
          "selfEnergy": 14.61,
          "sessionId": 157,
          "startSoc": 0,
          "startTime": "2018-09-07T01:55:00Z",
          "vehicleBrand": "",
          "vehicleModel": ""
        },
        {
          "account": "PRIVATE",
          "chargingType": "AC",
          "clockSrc": "INVALID",
          "costs": 36.78,
          "duration": 9199,
          "endSoc": 0,
          "endTime": "2018-09-08T05:24:19Z",
          "energySumKwh": 68.59,
          "pcid": "",
          "selfEnergy": 6.93,
          "sessionId": 158,
          "startSoc": 0,
          "startTime": "2018-09-08T02:51:00Z",
          "vehicleBrand": "",
          "vehicleModel": ""
        },
        {
          "account": "BUSINESS",
          "chargingType": "AC",
          "clockSrc": "INVALID",
          "costs": 29.11,
          "duration": 8093,
          "endSoc": 0,
          "endTime": "2018-09-09T12:29:53Z",
          "energySumKwh": 70.87,
          "pcid": "",
          "selfEnergy": 7.44,
          "sessionId": 159,
          "startSoc": 0,
          "startTime": "2018-09-09T10:15:00Z",
          "vehicleBrand": "",
          "vehicleModel": ""
        },
        {
          "account": "BUSINESS",
          "chargingType": "AC",
          "clockSrc": "NTP",
          "costs": 15.01,
          "duration": 8039,
          "endSoc": 0,
          "endTime": "2018-09-10T13:02:59Z",
          "energySumKwh": 41.16,
          "pcid": "",
          "selfEnergy": 8,
          "sessionId": 160,
          "startSoc": 0,
          "startTime": "2018-09-10T10:49:00Z",
          "vehicleBrand": "",
          "vehicleModel": ""
        },
        {
          "account": "PRIVATE",
          "chargingType": "AC",
          "clockSrc": "NTP",
          "costs": 32.48,
          "duration": 3533,
          "endSoc": 0,
          "endTime": "2018-09-11T03:56:53Z",
          "energySumKwh": 88.32,
          "pcid": "",
          "selfEnergy": 14.38,
          "sessionId": 161,
          "startSoc": 0,
          "startTime": "2018-09-11T02:58:00Z",
          "vehicleBrand": "",
          "vehicleModel": ""
        },
        {
          "account": "BUSINESS",
          "chargingType": "AC",
          "clockSrc": "NTP",
          "costs": 38.22,
          "duration": 5586,
          "endSoc": 0,
          "endTime": "2018-09-12T07:46:06Z",
          "energySumKwh": 87.92,
          "pcid": "",
          "selfEnergy": 13.7,
          "sessionId": 162,
          "startSoc": 0,
          "startTime": "2018-09-12T06:13:00Z",
          "vehicleBrand": "",
          "vehicleModel": ""
        },
        {
          "account": "BUSINESS",
          "chargingType": "AC",
          "clockSrc": "INVALID",
          "costs": 22.7,
          "duration": 5028,
          "endSoc": 0,
          "endTime": "2018-09-14T01:03:48Z",
          "energySumKwh": 20.71,
          "pcid": "",
          "selfEnergy": 17.24,
          "sessionId": 163,
          "startSoc": 0,
          "startTime": "2018-09-13T23:40:00Z",
          "vehicleBrand": "",
          "vehicleModel": ""
        },
        {
          "account": "BUSINESS",
          "chargingType": "AC",
          "clockSrc": "INVALID",
          "costs": 25.08,
          "duration": 7897,
          "endSoc": 0,
          "endTime": "2018-09-14T08:47:37Z",
          "energySumKwh": 49.48,
          "pcid": "",
          "selfEnergy": 15.86,
          "sessionId": 164,
          "startSoc": 0,
          "startTime": "2018-09-14T06:36:00Z",
          "vehicleBrand": "",
          "vehicleModel": ""
        },
        {
          "account": "PRIVATE",
          "chargingType": "AC",
          "clockSrc": "NTP",
          "costs": 29.95,
          "duration": 5942,
          "endSoc": 0,
          "endTime": "2018-09-15T22:13:02Z",
          "energySumKwh": 85.12,
          "pcid": "",
          "selfEnergy": 19.78,
          "sessionId": 165,
          "startSoc": 0,
          "startTime": "2018-09-15T20:34:00Z",
          "vehicleBrand": "",
          "vehicleModel": ""
        },
        {
          "account": "PRIVATE",
          "chargingType": "AC",
          "clockSrc": "NTP",
          "costs": 42.7,
          "duration": 5214,
          "endSoc": 0,
          "endTime": "2018-09-16T22:35:54Z",
          "energySumKwh": 48.96,
          "pcid": "",
          "selfEnergy": 6.61,
          "sessionId": 166,
          "startSoc": 0,
          "startTime": "2018-09-16T21:09:00Z",
          "vehicleBrand": "",
          "vehicleModel": ""
        },
        {
          "account": "PRIVATE",
          "chargingType": "AC",
          "clockSrc": "INVALID",
          "costs": 35.05,
          "duration": 846,
          "endSoc": 0,
          "endTime": "2018-09-17T21:54:06Z",
          "energySumKwh": 79.18,
          "pcid": "",
          "selfEnergy": 9.37,
          "sessionId": 167,
          "startSoc": 0,
          "startTime": "2018-09-17T21:40:00Z",
          "vehicleBrand": "",
          "vehicleModel": ""
        },
        {
          "account": "BUSINESS",
          "chargingType": "AC",
          "clockSrc": "INVALID",
          "costs": 25.49,
          "duration": 9324,
          "endSoc": 0,
          "endTime": "2018-09-18T18:55:24Z",
          "energySumKwh": 89.02,
          "pcid": "",
          "selfEnergy": 1.65,
          "sessionId": 168,
          "startSoc": 0,
          "startTime": "2018-09-18T16:20:00Z",
          "vehicleBrand": "",
          "vehicleModel": ""
        },
        {
          "account": "BUSINESS",
          "chargingType": "AC",
          "clockSrc": "INVALID",
          "costs": 25.82,
          "duration": 4296,
          "endSoc": 0,
          "endTime": "2018-09-19T22:53:36Z",
          "energySumKwh": 56.45,
          "pcid": "",
          "selfEnergy": 6.18,
          "sessionId": 169,
          "startSoc": 0,
          "startTime": "2018-09-19T21:42:00Z",
          "vehicleBrand": "",
          "vehicleModel": ""
        },
        {
          "account": "PRIVATE",
          "chargingType": "AC",
          "clockSrc": "NTP",
          "costs": 32.4,
          "duration": 6446,
          "endSoc": 0,
          "endTime": "2018-09-20T23:44:26Z",
          "energySumKwh": 56.3,
          "pcid": "",
          "selfEnergy": 16.37,
          "sessionId": 170,
          "startSoc": 0,
          "startTime": "2018-09-20T21:57:00Z",
          "vehicleBrand": "",
          "vehicleModel": ""
        },
        {
          "account": "PRIVATE",
          "chargingType": "AC",
          "clockSrc": "NTP",
          "costs": 30.07,
          "duration": 1186,
          "endSoc": 0,
          "endTime": "2018-09-21T22:26:46Z",
          "energySumKwh": 43.22,
          "pcid": "",
          "selfEnergy": 13.21,
          "sessionId": 171,
          "startSoc": 0,
          "startTime": "2018-09-21T22:07:00Z",
          "vehicleBrand": "",
          "vehicleModel": ""
        },
        {
          "account": "BUSINESS",
          "chargingType": "AC",
          "clockSrc": "INVALID",
          "costs": 21.99,
          "duration": 7581,
          "endSoc": 0,
          "endTime": "2018-09-22T09:00:21Z",
          "energySumKwh": 21.76,
          "pcid": "",
          "selfEnergy": 2.06,
          "sessionId": 172,
          "startSoc": 0,
          "startTime": "2018-09-22T06:54:00Z",
          "vehicleBrand": "",
          "vehicleModel": ""
        },
        {
          "account": "PRIVATE",
          "chargingType": "AC",
          "clockSrc": "NTP",
          "costs": 24.32,
          "duration": 4496,
          "endSoc": 0,
          "endTime": "2018-09-23T10:49:56Z",
          "energySumKwh": 26.28,
          "pcid": "",
          "selfEnergy": 3.54,
          "sessionId": 173,
          "startSoc": 0,
          "startTime": "2018-09-23T09:35:00Z",
          "vehicleBrand": "",
          "vehicleModel": ""
        },
        {
          "account": "BUSINESS",
          "chargingType": "AC",
          "clockSrc": "INVALID",
          "costs": 22.27,
          "duration": 1164,
          "endSoc": 0,
          "endTime": "2018-09-24T09:58:24Z",
          "energySumKwh": 59.17,
          "pcid": "",
          "selfEnergy": 1.66,
          "sessionId": 174,
          "startSoc": 0,
          "startTime": "2018-09-24T09:39:00Z",
          "vehicleBrand": "",
          "vehicleModel": ""
        },
        {
          "account": "BUSINESS",
          "chargingType": "AC",
          "clockSrc": "NTP",
          "costs": 16.02,
          "duration": 5198,
          "endSoc": 0,
          "endTime": "2018-09-25T11:31:38Z",
          "energySumKwh": 59.26,
          "pcid": "",
          "selfEnergy": 16.56,
          "sessionId": 175,
          "startSoc": 0,
          "startTime": "2018-09-25T10:05:00Z",
          "vehicleBrand": "",
          "vehicleModel": ""
        },
        {
          "account": "PRIVATE",
          "chargingType": "AC",
          "clockSrc": "NTP",
          "costs": 18.59,
          "duration": 6094,
          "endSoc": 0,
          "endTime": "2018-09-26T13:47:34Z",
          "energySumKwh": 68.46,
          "pcid": "",
          "selfEnergy": 3.96,
          "sessionId": 176,
          "startSoc": 0,
          "startTime": "2018-09-26T12:06:00Z",
          "vehicleBrand": "",
          "vehicleModel": ""
        },
        {
          "account": "PRIVATE",
          "chargingType": "AC",
          "clockSrc": "NTP",
          "costs": 33.98,
          "duration": 2535,
          "endSoc": 0,
          "endTime": "2018-09-27T13:51:15Z",
          "energySumKwh": 46.74,
          "pcid": "",
          "selfEnergy": 16.46,
          "sessionId": 177,
          "startSoc": 0,
          "startTime": "2018-09-27T13:09:00Z",
          "vehicleBrand": "",
          "vehicleModel": ""
        },
        {
          "account": "PRIVATE",
          "chargingType": "AC",
          "clockSrc": "INVALID",
          "costs": 40.97,
          "duration": 3312,
          "endSoc": 0,
          "endTime": "2018-09-28T14:24:12Z",
          "energySumKwh": 29.42,
          "pcid": "",
          "selfEnergy": 16.55,
          "sessionId": 178,
          "startSoc": 0,
          "startTime": "2018-09-28T13:29:00Z",
          "vehicleBrand": "",
          "vehicleModel": ""
        },
        {
          "account": "BUSINESS",
          "chargingType": "AC",
          "clockSrc": "NTP",
          "costs": 25.98,
          "duration": 4198,
          "endSoc": 0,
          "endTime": "2018-09-29T16:11:58Z",
          "energySumKwh": 26.21,
          "pcid": "",
          "selfEnergy": 7.12,
          "sessionId": 179,
          "startSoc": 0,
          "startTime": "2018-09-29T15:02:00Z",
          "vehicleBrand": "",
          "vehicleModel": ""
        },
        {
          "account": "BUSINESS",
          "chargingType": "AC",
          "clockSrc": "NTP",
          "costs": 22.12,
          "duration": 4067,
          "endSoc": 0,
          "endTime": "2018-09-30T17:48:47Z",
          "energySumKwh": 78.96,
          "pcid": "",
          "selfEnergy": 2.52,
          "sessionId": 180,
          "startSoc": 0,
          "startTime": "2018-09-30T16:41:00Z",
          "vehicleBrand": "",
          "vehicleModel": ""
        },
        {
          "account": "PRIVATE",
          "chargingType": "AC",
          "clockSrc": "NTP",
          "costs": 19.76,
          "duration": 9510,
          "endSoc": 0,
          "endTime": "2018-10-01T20:09:30Z",
          "energySumKwh": 83.2,
          "pcid": "",
          "selfEnergy": 13.95,
          "sessionId": 181,
          "startSoc": 0,
          "startTime": "2018-10-01T17:31:00Z",
          "vehicleBrand": "",
          "vehicleModel": ""
        },
        {
          "account": "PRIVATE",
          "chargingType": "AC",
          "clockSrc": "NTP",
          "costs": 43.4,
          "duration": 1676,
          "endSoc": 0,
          "endTime": "2018-10-02T20:02:56Z",
          "energySumKwh": 26.12,
          "pcid": "",
          "selfEnergy": 19.35,
          "sessionId": 182,
          "startSoc": 0,
          "startTime": "2018-10-02T19:35:00Z",
          "vehicleBrand": "",
          "vehicleModel": ""
        },
        {
          "account": "PRIVATE",
          "chargingType": "AC",
          "clockSrc": "NTP",
          "costs": 37.74,
          "duration": 2414,
          "endSoc": 0,
          "endTime": "2018-10-03T20:29:14Z",
          "energySumKwh": 44.77,
          "pcid": "",
          "selfEnergy": 11.02,
          "sessionId": 183,
          "startSoc": 0,
          "startTime": "2018-10-03T19:49:00Z",
          "vehicleBrand": "",
          "vehicleModel": ""
        },
        {
          "account": "PRIVATE",
          "chargingType": "AC",
          "clockSrc": "NTP",
          "costs": 15.39,
          "duration": 3154,
          "endSoc": 0,
          "endTime": "2018-10-04T20:46:34Z",
          "energySumKwh": 45.24,
          "pcid": "",
          "selfEnergy": 8.35,
          "sessionId": 184,
          "startSoc": 0,
          "startTime": "2018-10-04T19:54:00Z",
          "vehicleBrand": "",
          "vehicleModel": ""
        },
        {
          "account": "PRIVATE",
          "chargingType": "AC",
          "clockSrc": "NTP",
          "costs": 21.46,
          "duration": 5406,
          "endSoc": 0,
          "endTime": "2018-10-05T21:30:06Z",
          "energySumKwh": 27.85,
          "pcid": "",
          "selfEnergy": 11.49,
          "sessionId": 185,
          "startSoc": 0,
          "startTime": "2018-10-05T20:00:00Z",
          "vehicleBrand": "",
          "vehicleModel": ""
        },
        {
          "account": "BUSINESS",
          "chargingType": "AC",
          "clockSrc": "NTP",
          "costs": 42.4,
          "duration": 1053,
          "endSoc": 0,
          "endTime": "2018-10-06T20:35:33Z",
          "energySumKwh": 38.49,
          "pcid": "",
          "selfEnergy": 7.79,
          "sessionId": 186,
          "startSoc": 0,
          "startTime": "2018-10-06T20:18:00Z",
          "vehicleBrand": "",
          "vehicleModel": ""
        },
        {
          "account": "BUSINESS",
          "chargingType": "AC",
          "clockSrc": "INVALID",
          "costs": 43.09,
          "duration": 10212,
          "endSoc": 0,
          "endTime": "2018-10-07T18:48:12Z",
          "energySumKwh": 45.82,
          "pcid": "",
          "selfEnergy": 19.08,
          "sessionId": 187,
          "startSoc": 0,
          "startTime": "2018-10-07T15:58:00Z",
          "vehicleBrand": "",
          "vehicleModel": ""
        },
        {
          "account": "BUSINESS",
          "chargingType": "AC",
          "clockSrc": "INVALID",
          "costs": 23.06,
          "duration": 5771,
          "endSoc": 0,
          "endTime": "2018-10-09T00:19:11Z",
          "energySumKwh": 39.46,
          "pcid": "",
          "selfEnergy": 8.39,
          "sessionId": 188,
          "startSoc": 0,
          "startTime": "2018-10-08T22:43:00Z",
          "vehicleBrand": "",
          "vehicleModel": ""
        },
        {
          "account": "BUSINESS",
          "chargingType": "AC",
          "clockSrc": "INVALID",
          "costs": 26.58,
          "duration": 9590,
          "endSoc": 0,
          "endTime": "2018-10-10T02:01:50Z",
          "energySumKwh": 56.25,
          "pcid": "",
          "selfEnergy": 13.1,
          "sessionId": 189,
          "startSoc": 0,
          "startTime": "2018-10-09T23:22:00Z",
          "vehicleBrand": "",
          "vehicleModel": ""
        },
        {
          "account": "BUSINESS",
          "chargingType": "AC",
          "clockSrc": "INVALID",
          "costs": 25.66,
          "duration": 7729,
          "endSoc": 0,
          "endTime": "2018-10-10T19:46:49Z",
          "energySumKwh": 47.05,
          "pcid": "",
          "selfEnergy": 2.84,
          "sessionId": 190,
          "startSoc": 0,
          "startTime": "2018-10-10T17:38:00Z",
          "vehicleBrand": "",
          "vehicleModel": ""
        },
        {
          "account": "PRIVATE",
          "chargingType": "AC",
          "clockSrc": "NTP",
          "costs": 26.4,
          "duration": 5221,
          "endSoc": 0,
          "endTime": "2018-10-11T04:32:01Z",
          "energySumKwh": 80.33,
          "pcid": "",
          "selfEnergy": 7.98,
          "sessionId": 191,
          "startSoc": 0,
          "startTime": "2018-10-11T03:05:00Z",
          "vehicleBrand": "",
          "vehicleModel": ""
        },
        {
          "account": "PRIVATE",
          "chargingType": "AC",
          "clockSrc": "NTP",
          "costs": 44.46,
          "duration": 6466,
          "endSoc": 0,
          "endTime": "2018-10-12T06:47:46Z",
          "energySumKwh": 28.72,
          "pcid": "",
          "selfEnergy": 4.68,
          "sessionId": 192,
          "startSoc": 0,
          "startTime": "2018-10-12T05:00:00Z",
          "vehicleBrand": "",
          "vehicleModel": ""
        },
        {
          "account": "PRIVATE",
          "chargingType": "AC",
          "clockSrc": "NTP",
          "costs": 38.19,
          "duration": 7889,
          "endSoc": 0,
          "endTime": "2018-10-13T13:11:29Z",
          "energySumKwh": 81.67,
          "pcid": "",
          "selfEnergy": 19.11,
          "sessionId": 193,
          "startSoc": 0,
          "startTime": "2018-10-13T11:00:00Z",
          "vehicleBrand": "",
          "vehicleModel": ""
        },
        {
          "account": "BUSINESS",
          "chargingType": "AC",
          "clockSrc": "NTP",
          "costs": 31.2,
          "duration": 5519,
          "endSoc": 0,
          "endTime": "2018-10-14T13:21:59Z",
          "energySumKwh": 34.42,
          "pcid": "",
          "selfEnergy": 12.88,
          "sessionId": 194,
          "startSoc": 0,
          "startTime": "2018-10-14T11:50:00Z",
          "vehicleBrand": "",
          "vehicleModel": ""
        },
        {
          "account": "BUSINESS",
          "chargingType": "AC",
          "clockSrc": "NTP",
          "costs": 44.52,
          "duration": 5280,
          "endSoc": 0,
          "endTime": "2018-10-15T13:48:00Z",
          "energySumKwh": 36.67,
          "pcid": "",
          "selfEnergy": 19.21,
          "sessionId": 195,
          "startSoc": 0,
          "startTime": "2018-10-15T12:20:00Z",
          "vehicleBrand": "",
          "vehicleModel": ""
        },
        {
          "account": "PRIVATE",
          "chargingType": "AC",
          "clockSrc": "NTP",
          "costs": 40.43,
          "duration": 5266,
          "endSoc": 0,
          "endTime": "2018-10-16T15:27:46Z",
          "energySumKwh": 70.37,
          "pcid": "",
          "selfEnergy": 16.95,
          "sessionId": 196,
          "startSoc": 0,
          "startTime": "2018-10-16T14:00:00Z",
          "vehicleBrand": "",
          "vehicleModel": ""
        },
        {
          "account": "BUSINESS",
          "chargingType": "AC",
          "clockSrc": "INVALID",
          "costs": 30.57,
          "duration": 8318,
          "endSoc": 0,
          "endTime": "2018-10-17T20:48:38Z",
          "energySumKwh": 47.9,
          "pcid": "",
          "selfEnergy": 5.22,
          "sessionId": 197,
          "startSoc": 0,
          "startTime": "2018-10-17T18:30:00Z",
          "vehicleBrand": "",
          "vehicleModel": ""
        },
        {
          "account": "BUSINESS",
          "chargingType": "AC",
          "clockSrc": "NTP",
          "costs": 16.34,
          "duration": 4205,
          "endSoc": 0,
          "endTime": "2018-10-18T21:10:05Z",
          "energySumKwh": 71.28,
          "pcid": "",
          "selfEnergy": 19.7,
          "sessionId": 198,
          "startSoc": 0,
          "startTime": "2018-10-18T20:00:00Z",
          "vehicleBrand": "",
          "vehicleModel": ""
        },
        {
          "account": "PRIVATE",
          "chargingType": "AC",
          "clockSrc": "NTP",
          "costs": 20.54,
          "duration": 11504,
          "endSoc": 0,
          "endTime": "2018-10-20T01:11:44Z",
          "energySumKwh": 73.74,
          "pcid": "",
          "selfEnergy": 9.82,
          "sessionId": 199,
          "startSoc": 0,
          "startTime": "2018-10-19T22:00:00Z",
          "vehicleBrand": "",
          "vehicleModel": ""
        },
        {
          "account": "PRIVATE",
          "chargingType": "AC",
          "clockSrc": "NTP",
          "costs": 20.07,
          "duration": 1873,
          "endSoc": 0,
          "endTime": "2018-10-20T23:51:13Z",
          "energySumKwh": 25.93,
          "pcid": "",
          "selfEnergy": 18.25,
          "sessionId": 200,
          "startSoc": 0,
          "startTime": "2018-10-20T23:20:00Z",
          "vehicleBrand": "",
          "vehicleModel": ""
        }
      ],
      "first": true,
      "last": false,
      "number": 0,
      "numberOfElements": 50,
      "size": 50,
      "sort": [
        {
          "ascending": false,
          "descending": true,
          "direction": "DESC",
          "ignoreCase": false,
          "nullHandling": "NATIVE",
          "property": "startTime"
        }
      ],
      "totalElements": 200,
      "totalPages": 4
    },
    "status": 200
  }
}